Name,ID
Airbnb,f39fa466-7937-11e6-a539-06d48441b777
Facebook,4dd3ad4c-1869-11e9-8707-025b2c57d212
Google P&E,f11e6430-3e97-11e8-a27f-060b37ffb723
Google Play Games,699043b0-7938-11e6-ba03-06b20b8677ed
Google Play Music,81c5e634-59fc-11e6-92d1-060b37ffb723
HBO,900c2ee8-2b27-11e9-a9b9-06348f3ebed8
ION360,8f30e2f4-4620-11e7-a4e7-06d48441b777
LG,a1bc7150-6145-11e7-a3e8-06d48441b777
MINI,edd3ea1e-26f2-11e8-83e1-060b37ffb723
Pizza Hut,e1789936-af8d-11e7-9797-060b37ffb723
RQ,cfabe9a0-5d2b-11e8-beff-02fd0a47dd48
Samsung HA,8202b8fc-59fc-11e6-abd5-060b37ffb723
SmartThings,831708ce-59fc-11e6-884f-060b37ffb723
YouTube,0055c446-60b1-11e6-9ec5-060b37ffb723
