ID,Name,Date Created
02cb0438-bdaf-11e6-a260-027a430c0995,Silva Artist Management Agency Day,12-08-2016 05:30pm
058c59e8-c325-11e7-ad58-02a6691319f3,LG SIGNATURE Inspirato Dallas,11-06-2017 11:02am
089f4320-8c1b-11e7-b07b-06d48441b777,FlexWash + Dry Install: Chef Jet Tila,08-28-2017 11:02am
08b7cce4-6a46-11e6-9413-027a430c0995,SXSW Airstream Day 4,08-24-2016 02:59pm
09726d86-a1e1-11e8-a01e-02a6691319f3,Nerdist Bizarre States 200th Episode Party SDCC,08-16-2018 10:47pm
0e4b62b2-29a0-11e9-b735-022500f56390,Facebook_Facebook Watch_HudaBoss_2018,02-05-2019 03:45pm
0f15d4e2-2bb9-11e8-980d-060b37ffb723,Daymond John (Shark Group) Pizza Hut Set,03-19-2018 02:04pm
0f53a3a2-0eb9-11e8-ae63-027a430c0995,Elsie Fisher Pizza Hut Set,02-10-2018 03:21pm
10523662-8923-11e8-8073-06b20b8677ed,Jessie Ennis Pizza Hut Set,07-16-2018 11:07am
1059a814-1bed-11e8-b57e-02a6691319f3,Tom Windish Pizza Hut Set,02-27-2018 10:36am
10bde7fc-7bd3-11e8-87d7-06b20b8677ed,True Public Relations Creative Hut,06-29-2018 12:31pm
11a1d9a8-6b1d-11e6-8ef2-06d48441b777,Family Hub Install: Gregg Sulkin,08-25-2016 04:38pm
120ee9c0-fd9d-11e8-899e-022500f56390,Activation | SoCal Pizza Rams Tailgate,12-11-2018 03:32pm
12268d1a-dbb5-11e7-8857-06d48441b777,Family Hub Install: Yifat Oren,12-07-2017 05:13pm
12dbe28a-3382-11e8-8fb6-027a430c0995,Splack Pizza Hut Set,03-29-2018 11:50am
12fb8142-bdcc-11e8-999d-02fd0a47dd48,"Samsung Home Appliances x Mary Shenouda / Eat Play Crush, LLC at Nike Just Do It HQ (Los Angeles)",09-21-2018 11:28am
15345ac8-bb9d-11e8-a3d3-06b20b8677ed,Quadwash,09-18-2018 04:46pm
16eff43a-c27d-11e8-80a4-02fd0a47dd48,?Get Ready to Get Together?,09-27-2018 10:45am
184fbe22-2bcf-11e8-b2a8-02fd0a47dd48,Pizza Hut + SXSW 2018,03-19-2018 04:41pm
19012452-1665-11e8-8c78-02fd0a47dd48,Jahleel Coleman + Pizza Hut Creative Hut,02-20-2018 09:40am
19ca7544-5bc8-11e7-be31-027a430c0995,RCA Records Agency Day,06-27-2017 11:07pm
1a38c7cc-78a4-11e6-88ed-060b37ffb723,Seitrack US Agency Day,09-11-2016 09:48pm
1a903abe-9d94-11e7-9a96-06d48441b777,Family Hub Install: Valerie Gordon,09-19-2017 04:41pm
1b03f2b2-8a09-11e8-bf62-06b20b8677ed,Buchwald Whitelisting Lunch,07-17-2018 02:33pm
1bec61c2-9d93-11e7-84a4-027a430c0995,FlexWash + Dry Install: Jennifer Borget,09-19-2017 04:34pm
1bf6a21a-24f4-11e9-bc2c-022500f56390,Activation | PH x Sundance Film Festival 2019,01-30-2019 05:04pm
1cae7850-c018-11e7-a7b6-06b20b8677ed,Family Hub Install: Julie Wampler,11-02-2017 02:52pm
1d48e9d2-aac2-11e7-bd17-06b20b8677ed,YouTube - LaceUp Influencer Screening,10-06-2017 11:13am
1d8a204e-1761-11e8-a336-02a6691319f3,Jimmy Fallon Rewards Program Jacket Gifting,02-21-2018 03:44pm
1f37e998-60bb-11e6-b2cb-060b37ffb723,Panorama Influencer Event At The Block,08-12-2016 11:32am
1f82555c-d3af-11e6-b7d1-02a6691319f3,Lemon Twigs NYC Concert,01-05-2017 05:26pm
200e7ac6-0ebb-11e8-8195-027a430c0995,Mekhi Phifer & Inny Clemons Super Bowl Viewing Party,02-10-2018 03:35pm
221ea9ca-102e-11e8-a5c3-02fd0a47dd48,Cloud Nine Productions,02-12-2018 11:51am
2476e7de-7bd9-11e8-a962-027a430c0995,Kovert Creative Creative Hut,06-29-2018 01:15pm
2676b210-46ee-11e7-a7ad-027a430c0995,FlexWash + Dry Install: Will Arnett,06-01-2017 10:17am
272ebc86-0145-11e8-8fde-06b20b8677ed,Pizza Hut + IndieWire Sundance 2018,01-24-2018 12:28pm
286d28d2-7bd2-11e8-9094-06b20b8677ed,Untitled PR Creative Hut,06-29-2018 12:25pm
29560a9e-3383-11e8-a11d-06d48441b777,Inny Clemons Pizza Hut Set,03-29-2018 11:58am
2c665a0e-5b5c-11e7-9bc2-06d48441b777,Family Hub Install: Joe Zee,06-27-2017 10:15am
2c8f15a8-bb46-11e7-9499-06b20b8677ed,LG SIGNATURE Culinary Masters,10-27-2017 11:39am
2da0b9b8-dbb9-11e7-83dd-02a6691319f3,Family Hub Install: The Cottage Family,12-07-2017 05:43pm
2ef1a17a-4621-11e7-88a9-02a6691319f3,Billboard Music Awards 2017,05-31-2017 09:49am
301598d2-7bda-11e8-bdeb-06d48441b777,Republic Records Creative Hut #2,06-29-2018 01:22pm
312d8c64-c371-11e8-a796-027a430c0995,The Enthusiast Network Creative Hut,09-28-2018 03:52pm
315a4190-7bc4-11e8-866b-06b20b8677ed,Starworks Creative Hut #2,06-29-2018 10:45am
32344372-4bcd-11e7-ad32-027a430c0995,Capitol Records Agency Day,06-07-2017 03:03pm
32edbd70-fd7e-11e8-8bc8-02bd33881eac,Activation | SoCal Chargers vs Bengals Tailgate,12-11-2018 11:51am
336c9cf8-4a7c-11e9-b89e-022500f56390,Pizza Hut Q1 IGC Wings 2019,03-19-2019 12:21pm
340fdbb6-b5f8-11e8-b6c8-06b20b8677ed,Facebook_Facebook Marketplace_Lighthouse Project_2018,09-11-2018 12:23pm
34136790-a1df-11e8-a486-027a430c0995,Alison Haislip Podcast Feeding at Nerdist House SDCC,08-16-2018 10:34pm
348e3edc-7a97-11e6-a833-027a430c0995,Sundance 2015 WME Lounge,09-14-2016 09:20am
35a26204-9448-11e8-9493-02a6691319f3,LAFC Whitelisting Test Run,07-30-2018 03:30pm
386b0516-0ebc-11e8-b6dc-02fd0a47dd48,JD Witherspoon Super Bowl Viewing Party,02-10-2018 03:43pm
38771124-ff7e-11e6-bbb5-06b20b8677ed,PAX South 2017,03-02-2017 11:27am
38bb4c78-f316-11e6-8e7d-06b20b8677ed,1:1 Meeting: Erik Andreasen,02-14-2017 04:32pm
38bb77b4-fd9d-11e8-87cf-0677394475f4,Activation | SoCal Pizza Chargers Tailgate,12-11-2018 03:33pm
39a41888-055b-11e8-8498-06d48441b777,The Ranch Creative Hut,01-29-2018 05:16pm
3a25b21a-7bc3-11e8-9774-060b37ffb723,CAA Creative Hut,06-29-2018 10:38am
3a376d52-7bd7-11e8-90cf-060b37ffb723,ViewPoint PR Creative Hut,06-29-2018 01:01pm
3bfb4a42-7eb2-11e6-be73-02a6691319f3,1:1 Meeting: Tracey Robertson,09-19-2016 02:44pm
3c76c988-7bd6-11e8-a019-06d48441b777,Independent PR Creative Hut,06-29-2018 12:54pm
3d17bcf4-2bc1-11e8-93c1-06d48441b777,Kevin M. Alejandro Pizza Hut Set,03-19-2018 03:02pm
3ddb91d8-7b26-11e8-bbbd-060b37ffb723,Scandal Creative Hut,06-28-2018 03:54pm
3e0b7a50-56a2-11e7-814a-027a430c0995,Family Hub Install: Howie Mandel,06-21-2017 09:54am
3ee25162-0145-11e8-9d26-02fd0a47dd48,Pizza Hut + WME Sundance 2018,01-24-2018 12:29pm
3efe1482-471a-11e7-9072-060b37ffb723,E3 2017 MasterClass,06-01-2017 03:32pm
402fa148-1907-11e9-955d-020250bfe0ea,Facebook_Facebook Watch_@TheMostAmazingDog Social Campaign_2018,01-15-2019 12:50pm
40d5f712-c324-11e7-b0e7-027a430c0995,LG SIGNATURE Jonathan Adler Short Hills,11-06-2017 10:56am
4332b6b4-3384-11e8-b279-06b20b8677ed,Baker Mayfield Pizza Hut Set,03-29-2018 12:06pm
44694b00-3385-11e8-a7de-060b37ffb723,Alisann Blood Pizza Hut Set,03-29-2018 12:13pm
446ef1d6-7937-11e6-b8bc-06d48441b777,1:1 Meeting: Peter Nichols,09-12-2016 03:21pm
46452f4a-c370-11e8-b56e-02a6691319f3,Penguin Random House Creative Hut,09-28-2018 03:46pm
466ff7c2-c030-11e8-bd22-02fd0a47dd48,Nerdist Creative Hut,09-24-2018 12:30pm
46bf66ee-9a75-11e8-81df-06b20b8677ed,Paul Leys Partnership Meeting,08-07-2018 12:08pm
4745ed0c-7b97-11e7-a91d-06b20b8677ed,Family Hub Install: June Ambrose,08-07-2017 10:38am
48f8d89e-2bcc-11e9-a245-06348f3ebed8,MINI_The Other Art Fair_2018,02-08-2019 10:06am
497d9fd8-1bed-11e8-959f-06d48441b777,Emma Ludbrook Pizza Hut Set,02-27-2018 10:37am
4a1ce8aa-bdcc-11e8-aed6-027a430c0995,Samsung Home Appliances x Sasha Farber & Emma Slater PR Campaign,09-21-2018 11:29am
4b3ff728-78a9-11e6-8f00-060b37ffb723,Magnus Media Agency Day,09-11-2016 10:25pm
4c04290a-bcd2-11e6-934d-02a6691319f3,Wolvesmouth Dinner with Kathryn Frazier,12-07-2016 03:10pm
4ccad48e-792e-11e6-b123-060b37ffb723,Los Angeles Wellness Event in Malibu,09-12-2016 02:17pm
4f4b6030-0d89-11e7-9a8e-06b20b8677ed,SXSW YouTube Artist Lounge 2017,03-20-2017 09:21am
4f77507e-64d7-11e6-8684-02a6691319f3,SXSW 2016 Hotel Van Zandt Dinner,08-17-2016 05:04pm
4fe13752-0eb6-11e8-b939-06b20b8677ed,JD Witherspoon Pizza Hut Set,02-10-2018 03:01pm
52610dfa-e71a-11e6-8f07-06d48441b777,Sundance 2017 WME Lounge,01-30-2017 10:31am
534fdb04-0eb7-11e8-922b-02fd0a47dd48,Jennifer Tanner Pizza Hut Set,02-10-2018 03:08pm
5368f622-5b50-11e7-8891-027a430c0995,Republic Records Agency Day,06-27-2017 08:50am
5390a8a4-14a4-11e7-b96c-06b20b8677ed,Example,03-29-2017 10:22am
541cc480-7eb1-11e6-9261-06b20b8677ed,1:1 Meeting: Nathan Mayfield,09-19-2016 02:37pm
54b3dac0-7a40-11e6-b5c2-027a430c0995,"Television Academy, Farewell to Mad Men",09-13-2016 10:58pm
555f2aae-5d27-11e7-a122-06b20b8677ed,Family Hub Install: James and Aubrey McCoy,06-29-2017 05:01pm
559ad90a-dadb-11e7-a6aa-027a430c0995,LG SIGNATURE Women in the World Dallas,12-06-2017 03:15pm
55fbda00-dbb4-11e7-9c81-06d48441b777,Family Hub Install: Melissa D'Arabian,12-07-2017 05:08pm
5628adc4-9a71-11e8-bdfd-060b37ffb723,Jack Reed Lunch Meeting with Alexandra,08-07-2018 11:40am
56936e24-1665-11e8-9ac3-027a430c0995,Mekhi Phifer Dinner with Kate and Alexandra,02-20-2018 09:41am
56d51b2e-8f7f-11e8-8c3e-02a6691319f3,Best Shot #WhoIsYourCoach Social Series,07-24-2018 01:22pm
5740a646-8a11-11e8-9e16-02fd0a47dd48,Geyer Kosinski Pixel 2 Seeding,07-17-2018 03:32pm
57ed0e5e-dd36-11e8-8e52-06b20b8677ed,LG 5 Boroughs 5 Nights 5 Views,10-31-2018 10:56am
5865c2ba-102a-11e8-a66c-06d48441b777,The Tonight Show Starring Jimmy Fallon Creative Hut,02-12-2018 11:24am
58f73812-02c4-11e8-819b-060b37ffb723,Shor-T Pizza Hut Set,01-26-2018 10:11am
59e45e0a-c325-11e7-bded-06b20b8677ed,LG SIGNATURE Jonathan Adler Denver,11-06-2017 11:04am
5af40002-60bb-11e6-814f-027a430c0995,Mac Miller Album Release Listening Party,08-12-2016 11:34am
5b4d3c72-c36e-11e8-9723-06b20b8677ed,Pizza Hut x Cinespia Halloween Activation,09-28-2018 03:32pm
5b85d5f2-72eb-11e7-b48a-060b37ffb723,UTA Agency Day - Los Angeles,07-27-2017 09:48am
5ba2f304-999a-11e8-8f93-027a430c0995,LAFC Team Whitelisting + Gifting,08-06-2018 10:01am
5c7f0854-7bd5-11e8-90d3-060b37ffb723,Management 360 Creative Hut,06-29-2018 12:48pm
5ce258c0-dbba-11e7-a8c1-02fd0a47dd48,Family Hub Install: Chris and Heidi Powell,12-07-2017 05:51pm
5d0bcba2-7eae-11e6-a262-060b37ffb723,1:1 Meeting: Jon Leshay,09-19-2016 02:16pm
5d6ecc74-4095-11e9-984f-022500f56390,Weird City,03-06-2019 08:56pm
5e1f1e34-aac5-11e6-a959-06b20b8677ed,Family Hub Install: Kate Bosworth,11-14-2016 03:52pm
5efab02e-5539-11e7-a08c-02a6691319f3,1:1 Pixel C Gifting: Wil Wheaton,06-19-2017 02:50pm
6010b07e-aa13-11e7-b580-060b37ffb723,LG SIGNATURE Taste of Tennis,10-05-2017 02:23pm
601114fa-2b28-11e9-8cdc-06348f3ebed8,LG InstaView Door-In-Door Knock Event,02-07-2019 02:33pm
605fda30-c373-11e8-9060-02fd0a47dd48,United Talent Agency Creative Hut,09-28-2018 04:08pm
60f195aa-60bb-11e6-96ab-027a430c0995,Lollapalooza Playroom Day 1,08-12-2016 11:34am
620a4462-1bec-11e8-85cb-060b37ffb723,Doug Le Pizza Hut Set,02-27-2018 10:31am
6251ba6e-4724-11e8-a46b-02a6691319f3,Friends Keep Secrets,04-23-2018 11:30am
656b66fc-0145-11e8-b7b6-02a6691319f3,Pizza Hut + Late Night Pizza Parka Sundance 2018,01-24-2018 12:30pm
6594aafa-0d92-11e7-999d-06b20b8677ed,SXSW Play Guild 2017,03-20-2017 10:26am
65e5a36c-792f-11e6-aaa4-027a430c0995,1:1 Meeting: Heather Dorak,09-12-2016 02:25pm
65ed1258-4107-11e9-9419-06348f3ebed8,Pizza Hut Q4 IGC Thanksgiving Eve 2018,03-07-2019 10:32am
65f3e614-c0de-11e7-8353-027a430c0995,Family Hub & FlexWash + Dry Install: Larissa Krutewicz,11-03-2017 02:31pm
667c4d0c-c0c4-11e7-b08a-06d48441b777,Guild Gathering | October,11-03-2017 11:25am
669fe04a-bdcc-11e8-866b-06b20b8677ed,Samsung Chef Collection PR Event,09-21-2018 11:30am
671341f6-c8c8-11e7-ba16-02a6691319f3,YouTube NYFW,11-13-2017 03:14pm
67a335b2-1869-11e9-abeb-025b2c57d212,Red Table Talk,01-14-2019 06:00pm
68760f22-0ebb-11e8-9ee5-02a6691319f3,Allen Maldonado Super Bowl Viewing Party,02-10-2018 03:37pm
69a64b68-7930-11e6-ade6-02a6691319f3,1:1 Meeting: Amie Barsky,09-12-2016 02:32pm
6ac9b958-5b5c-11e7-b2ae-02a6691319f3,FlexWash + Dry Install: Charlie Walk,06-27-2017 10:16am
6b3fa7a8-8923-11e8-afff-027a430c0995,"Chord Overstreet, Single Release Party + Pizza Hut",07-16-2018 11:09am
6b9ba03c-102c-11e8-802b-060b37ffb723,Shondaland Creative Hut,02-12-2018 11:39am
6cd292e0-a248-11e8-9b4b-02fd0a47dd48,Pizza Hut Q3 IGC Cheesy Bites 2018,08-17-2018 11:07am
6dbb9428-0eb8-11e8-bbc4-06d48441b777,Allen Maldonado Pizza Hut Set,02-10-2018 03:16pm
6eb8a448-bdcb-11e8-89c6-02a6691319f3,Samsung Home Appliances x Bri Emery / Designlovefest Cooking Content Series,09-21-2018 11:23am
6f503f14-a23a-11e6-8f97-027a430c0995,Julie Greenwald's Music That Gets Women Talking,11-03-2016 07:57pm
7173c93a-7a41-11e6-9f6d-02a6691319f3,SXSW 2015 Newsstand in Fleming's Steak House,09-13-2016 11:06pm
72902974-8f81-11e8-9134-027a430c0995,YTTV March Madness Influencer Partners,07-24-2018 01:37pm
72f257f0-89b2-11e7-8840-060b37ffb723,Family Hub Install: Jen Chae,08-25-2017 09:28am
748385fa-ff6d-11e6-9413-02a6691319f3,Play Guild Launch Event,03-02-2017 09:27am
764765d4-c0d1-11e7-a7e9-06d48441b777,Valerie Gordon Samsung Family Hub Shoot,11-03-2017 12:59pm
776be620-03be-11e9-afc3-025b2c57d212,Latin Grammy Creator Experience,12-19-2018 10:46am
77c1211e-c00b-11e7-828e-06d48441b777,Family Hub Install: Lauren McBride,11-02-2017 01:21pm
7a1f52bc-7eaf-11e6-b876-06b20b8677ed,1:1 Meeting: Emma Ludbrook,09-19-2016 02:24pm
7be56568-9f1b-11e7-82f0-027a430c0995,LG SIGNATURE Martha's Vineyard Summer Soiree,09-21-2017 03:23pm
7dbc3a98-9d94-11e7-99cd-06d48441b777,Family Hub Install: Megan Gilmore,09-19-2017 04:44pm
7e0444c0-dbb3-11e7-800e-02fd0a47dd48,Family Hub Install: Ziggy Marley,12-07-2017 05:02pm
7e0ebee6-aac2-11e6-a0df-060b37ffb723,Family Hub Install: George Kotsiopoulos,11-14-2016 03:31pm
7f614694-7bd9-11e8-acaa-06b20b8677ed,Trailer Park Creative Hut,06-29-2018 01:17pm
81c35474-7bd7-11e8-b1b2-02fd0a47dd48,BWR Creative Hut,06-29-2018 01:03pm
81f839d6-59fc-11e6-8c26-060b37ffb723,1:1 Meeting: QDIII,08-03-2016 09:32pm
823eb078-59fc-11e6-b8be-060b37ffb723,Anonymous Content Agency Day,08-03-2016 09:32pm
824b7db2-59fc-11e6-8bff-060b37ffb723,Billboard Latin Thought-Leadership Breakfast,08-03-2016 09:32pm
82572bc6-59fc-11e6-bab7-060b37ffb723,Billboard/THR Agency Day,08-03-2016 09:32pm
82604152-59fc-11e6-a0f9-060b37ffb723,BMI Agency Day,08-03-2016 09:32pm
826b6848-59fc-11e6-a85c-060b37ffb723,CAA Agency Day,08-03-2016 09:32pm
82749328-59fc-11e6-b991-060b37ffb723,CAA Nashville Agency Day,08-03-2016 09:32pm
82784c80-e0ff-11e7-8c79-06d48441b777,Airbnb Influencer Experiences Program,12-14-2017 10:49am
827e7578-59fc-11e6-a69a-060b37ffb723,Career Artist Management Agency Day,08-03-2016 09:32pm
8288cbd6-c0df-11e7-a4d3-06d48441b777,Family Hub Install: Laura Vitale,11-03-2017 02:39pm
828afb9a-59fc-11e6-b66b-060b37ffb723,Crush Music Agency Day,08-03-2016 09:32pm
8294a5be-59fc-11e6-a4b8-060b37ffb723,Crush Music NY Agency Day,08-03-2016 09:32pm
829d0c0e-59fc-11e6-8bbd-060b37ffb723,Deckstar Agency Day,08-03-2016 09:32pm
82bb44da-59fc-11e6-bd2d-060b37ffb723,Hangout Fest,08-03-2016 09:32pm
82c48c3e-59fc-11e6-b63e-060b37ffb723,ICM Partners Agency Day,08-03-2016 09:32pm
82ce440e-59fc-11e6-a040-060b37ffb723,Mick Management Agency Day,08-03-2016 09:32pm
82d86b28-59fc-11e6-a128-060b37ffb723,Monotone Agency Day,08-03-2016 09:32pm
82e4aabe-59fc-11e6-837b-060b37ffb723,Q Prime Management Agency Day,08-03-2016 09:32pm
82f078bc-59fc-11e6-8536-060b37ffb723,Redlight Management Agency Day,08-03-2016 09:32pm
830444b4-59fc-11e6-9c78-060b37ffb723,Rogers and Cowan Agency Day,08-03-2016 09:32pm
830dac5c-59fc-11e6-acd5-060b37ffb723,Rooted in Music (Quincy Jones),08-03-2016 09:32pm
831eae4e-59fc-11e6-beef-060b37ffb723,SXSW Airstream Day 1,08-03-2016 09:32pm
8336c0d2-c324-11e7-88b6-02a6691319f3,LG SIGNATURE Inspirato Chicago,11-06-2017 10:58am
833e46f0-59fc-11e6-9993-060b37ffb723,The Surf Lodge,08-03-2016 09:32pm
834a8e24-59fc-11e6-b161-060b37ffb723,Three Six Zero Agency Day,08-03-2016 09:32pm
8354f06c-59fc-11e6-be16-060b37ffb723,The Windish Agency Day,08-03-2016 09:32pm
835f1646-59fc-11e6-a9ad-060b37ffb723,Tom Windish Grand Opening,08-03-2016 09:32pm
836a81c0-59fc-11e6-8dda-060b37ffb723,Trackifer Group,08-03-2016 09:32pm
8375a992-59fc-11e6-af96-060b37ffb723,UTA Agency Day,08-03-2016 09:32pm
83818db6-59fc-11e6-9b6b-060b37ffb723,Vince Gill Dinner,08-03-2016 09:32pm
838a70ac-59fc-11e6-86a3-060b37ffb723,Warner Bros Records Agency Day,08-03-2016 09:32pm
83951318-59fc-11e6-9313-060b37ffb723,WME Agency Day,08-03-2016 09:32pm
839f3352-59fc-11e6-9c61-060b37ffb723,WME Nashville Agency Day,08-03-2016 09:32pm
83a93fb4-59fc-11e6-a194-060b37ffb723,Wondaland 1 Year,08-03-2016 09:32pm
845d1d48-2bbc-11e8-9b4e-06d48441b777,Alana Balden Pizza Hut Set,03-19-2018 02:28pm
849fad52-60bb-11e6-a58a-02a6691319f3,Lollapalooza Playroom Day 2,08-12-2016 11:35am
84d64266-7bd2-11e8-bb8e-027a430c0995,ID PR Creative Hut,06-29-2018 12:27pm
855c3ba6-2bcb-11e9-b1b5-022500f56390,MINI_Holiday Dinner_2018,02-08-2019 10:01am
86df0c06-1d94-11e8-b6a9-06d48441b777,Google Play Guild - 2018 Q1 Gift Box,03-01-2018 01:07pm
8787df3a-c34d-11e7-bada-027a430c0995,Lunch and Learn with Flip Management,11-06-2017 03:52pm
87bb10c4-6a45-11e6-a2df-06d48441b777,SXSW Airstream Day 2,08-24-2016 02:55pm
886501fa-1e59-11e8-a879-02fd0a47dd48,Darius Coleman Pizza Hut Set,03-02-2018 12:37pm
8897e7e0-dbbb-11e7-831f-06d48441b777,Family Hub Install: Matt Gibson,12-07-2017 06:00pm
895ed1b8-7931-11e6-a620-060b37ffb723,1:1 Meeting: Kourtney McCullough,09-12-2016 02:40pm
8a1f2fc2-7bd6-11e8-b079-027a430c0995,PMK-BNC Creative Hut,06-29-2018 12:56pm
8b108eb0-0090-11e8-86e9-02fd0a47dd48,Republic Records Creative Hut,01-23-2018 02:55pm
8b7902a0-8921-11e8-8d32-060b37ffb723,Arianna Margulis Pizza Hut Set,07-16-2018 10:56am
8ccd4136-ce44-11e7-a68b-027a430c0995,FlexWash + Dry Install: Mario Lopez,11-20-2017 02:45pm
8d8c0c50-7bd8-11e8-b199-06d48441b777,Rogers & Cowan Creative Hut,06-29-2018 01:11pm
8df294cc-bdcb-11e8-afc4-06b20b8677ed,Samsung x Matthew McConauhhey?s ?Just Keep Livin Foundation? Charity  Dinner,09-21-2018 11:24am
8f0559ea-7a33-11e6-b833-06b20b8677ed,NY Fitness Day at S10 Fitness,09-13-2016 09:27pm
8f29fca8-bdcc-11e8-b7d5-02fd0a47dd48,Samsung Home Appliances x Bri Emery / Designlovefest social media  correspondent role at Hedley & Bennett Chef Collection test kitchen launch event,09-21-2018 11:31am
8f402c1c-77af-11e7-80cf-06d48441b777,LG SIGNATURE Rand Brunch,08-02-2017 11:22am
8f59b898-7a0e-11e6-b31a-02a6691319f3,Rae Sremmurd SXSW Pong Tournament,09-13-2016 05:02pm
8f6e00a6-8a0f-11e8-9ccf-060b37ffb723,Alison Haislip YouTube Music Whitelisting,07-17-2018 03:20pm
90d4e3f6-83bb-11e8-a1cd-02a6691319f3,Lauren Lapkus Pizza Hut Set,07-09-2018 02:03pm
915b1990-d46a-11e7-beaf-02a6691319f3,LG SIGNATURE Pendry,11-28-2017 10:33am
92b3e282-102d-11e8-b0e7-02a6691319f3,Starworks Creative Hut,02-12-2018 11:47am
9532bcae-c36f-11e8-bc2b-02a6691319f3,Dirty Robber Creative Hut,09-28-2018 03:41pm
96366284-7526-11e6-ba2b-06b20b8677ed,The Latin Recording Academy Agency Day,09-07-2016 11:12am
967ef2ca-6439-11e8-883b-060b37ffb723,Harry Potter + Google Play Guild Gifting,05-30-2018 11:45am
97573f8a-3762-11e8-8732-06b20b8677ed,SXSW Studio + Lounge,04-03-2018 10:15am
98377058-d616-11e7-8205-02a6691319f3,Family Hub Install: Michael Mina,11-30-2017 01:36pm
99d57f56-7607-11e6-86cc-02a6691319f3,Warner Music Latina Agency Day,09-08-2016 02:02pm
99d7f720-41f9-11e9-adc2-0677394475f4,Red Table Talk Day 10/22/18,03-08-2019 03:26pm
9adf7f58-0145-11e8-a67b-06d48441b777,Pizza Hut Gift Card Seedings Sundance 2018,01-24-2018 12:31pm
9cf12946-dbb5-11e7-b412-06d48441b777,Family Hub Install: Billy Harris,12-07-2017 05:17pm
9ff1efae-6b12-11e7-ba0e-06b20b8677ed,FlexWash + Dry Install: Sara Forte,07-17-2017 10:08am
9ffee2ec-7236-11e7-ad10-02a6691319f3,Family Hub Install: Breanna Bertolini,07-26-2017 12:14pm
a5ea0286-102e-11e8-9c0e-06b20b8677ed,Taken Creative Hut,02-12-2018 11:55am
a6057062-a1e1-11e8-956e-027a430c0995,Buzzfeed Presents Spells and Spirits Party SDCC,08-16-2018 10:51pm
a7921618-a1e3-11e8-baef-02fd0a47dd48,Ready Party One SDCC,08-16-2018 11:06pm
a80fb89a-60bb-11e6-8698-06d48441b777,Lollapalooza Playroom Day 3,08-12-2016 11:36am
a883afbc-fbc3-11e7-a17e-02fd0a47dd48,LG Quadwash Water Park,01-17-2018 12:19pm
a94e5bc8-a1df-11e8-b8c5-06b20b8677ed,The Voice Creative Hut,08-16-2018 10:37pm
a968bd62-c8c6-11e7-a3ff-06d48441b777,YouTube VMAs,11-13-2017 03:02pm
aa374c84-c36d-11e8-ab4b-02a6691319f3,Everybody Digital Film Festival,09-28-2018 03:27pm
ab952768-83b2-11e8-933b-027a430c0995,Jared Abrahamson Pizza Hut Set,07-09-2018 01:00pm
ab966a68-05f6-11e8-9a31-02fd0a47dd48,Universal Music Group Creative Hut,01-30-2018 11:49am
ac4bb7ba-60bb-11e6-9933-060b37ffb723,Dua Lipa Listening Party Brunch,08-12-2016 11:36am
ad3ee888-3380-11e8-b972-060b37ffb723,Jacques Slade Pizza Hut Set,03-29-2018 11:40am
ad78597e-8a10-11e8-a3fd-02a6691319f3,Alison Haislip Pixel 2 Seeding,07-17-2018 03:28pm
ad91aeda-79f8-11e6-ac1f-060b37ffb723,1:1 Meeting: Ali Barash,09-13-2016 02:26pm
ae930bb4-7c4e-11e6-a6ef-02a6691319f3,Neuehouse NY Hosted Event,09-16-2016 01:46pm
aef1002e-7bc6-11e8-9b9d-02a6691319f3,WeWork Creative Hut #2,06-29-2018 11:03am
afc04522-c370-11e8-9063-06b20b8677ed,Rooftop Cinema Club Creative Hut,09-28-2018 03:48pm
b0b5a850-83ba-11e8-8d47-02fd0a47dd48,Eric Kranzler Pizza Hut Set,07-09-2018 01:57pm
b1b96178-7bc8-11e8-8c19-060b37ffb723,APA Talent Agency Creative Hut,06-29-2018 11:17am
b3319568-0ebb-11e8-ab2b-02a6691319f3,MatPat Super Bowl Viewing Party,02-10-2018 03:39pm
b4cc3514-8921-11e8-b0e5-027a430c0995,Bobby Bones Pizza Hut Set,07-16-2018 10:57am
b5e2a764-f0d1-11e7-99c1-027a430c0995,YouTube Red | Step Up: High Water,01-03-2018 02:01pm
b659b8a0-7601-11e6-b00b-06d48441b777,United Talent Agency Miami Agency Day,09-08-2016 01:20pm
b6c8cf48-dbb2-11e7-b0bf-06d48441b777,Family Hub Install: Nancy Silverton,12-07-2017 04:57pm
b78c5576-6b15-11e6-a389-06d48441b777,Maverick Agency Day,08-25-2016 03:46pm
b7b5ae02-6be2-11e7-9564-060b37ffb723,Family Hub Install: Clique Media Group,07-18-2017 10:58am
b93e020e-cce1-11e8-91ec-02a6691319f3,YouTube Music AMAs Creator Lounge,10-10-2018 04:10pm
ba77ee20-7b09-11e8-bfe3-06d48441b777,Reese Witherspoon Project Creative Hut,06-28-2018 12:30pm
bb77bab8-dbb7-11e7-84b8-02a6691319f3,Family Hub Install: Jackelyn Shultz,12-07-2017 05:33pm
bc677fba-2a5a-11e9-90fb-020250bfe0ea,Facebook_Facebook Watch_Red Table Talk_2018,02-06-2019 02:01pm
bd3c5ad0-c022-11e7-9feb-060b37ffb723,FlexWash + Dry Install: Becky Hillyard,11-02-2017 04:08pm
bd5ff024-bdcb-11e8-af5a-027a430c0995,Samsung Home Appliances x LaTonya Staubs ?Day in the Life? Content Piece,09-21-2018 11:25am
bd6c8f24-aac0-11e7-a97f-060b37ffb723,YouTube - Demi Lovato Simply Complicated Fan Exp.,10-06-2017 11:04am
bd78bdb4-5a27-11e8-be44-06d48441b777,NFL 2018 Rookie Premier,05-17-2018 04:12pm
bd912400-83c4-11e8-a7d2-027a430c0995,Nick Rutherford Pizza Hut Set,07-09-2018 03:09pm
bee150d2-c36b-11e8-9aae-06b20b8677ed,Getty Creative Hut,09-28-2018 03:13pm
bfaf2b2e-7bc2-11e8-9e62-02a6691319f3,WeWork Creative Hut,06-29-2018 10:35am
c149d450-0144-11e8-9c3b-027a430c0995,Jack Pitney Pizza Hut Set,01-24-2018 12:25pm
c16699dc-7bd8-11e8-81ea-06d48441b777,Burstein Co. Creative Hut,06-29-2018 01:12pm
c32adb1e-8fa3-11e8-83b7-06b20b8677ed,Karen Civil YouTube Music Whitelisting,07-24-2018 05:43pm
c357853c-c370-11e8-88b4-06b20b8677ed,Rolling Stone Creative Hut,09-28-2018 03:49pm
c37b18f8-e68f-11e7-bfc9-02a6691319f3,Airbnb HQ Visits,12-21-2017 12:44pm
c480e3f0-c2f4-11e6-9eb5-027a430c0995,Kehlani NYC Concert,12-15-2016 10:32am
c57b742a-7bc4-11e8-afdd-06b20b8677ed,Scorpion Creative Hut,06-29-2018 10:49am
c5f15d4e-7bd7-11e8-a2f4-027a430c0995,Imprint PR Creative Hut,06-29-2018 01:05pm
c7fc5960-757e-11e6-9004-06b20b8677ed,CAA Miami (Latin) Agency Day,09-07-2016 09:43pm
c9197c62-d615-11e7-8fe7-06b20b8677ed,Play Guild November-December Branded Content,11-30-2017 01:31pm
c924819c-9d90-11e7-be87-027a430c0995,Family Hub Install: Dave Franco & Alison Brie,09-19-2017 04:18pm
c9bf4f22-9a6c-11e8-971c-02fd0a47dd48,Arianna Margulis Partnership Meeting,08-07-2018 11:07am
ca73abb6-aa2b-11e7-b2c2-06b20b8677ed,LG SIGNATURE MGA Pro-AM,10-05-2017 05:17pm
cad86ac4-a1e2-11e8-9931-06b20b8677ed,Nerdist Talks Back Creative Hut,08-16-2018 11:00pm
cb8ca9b6-9a6d-11e8-ad11-06b20b8677ed,Audrey Gelman Partnership Meeting,08-07-2018 11:14am
cc826590-3384-11e8-831d-02fd0a47dd48,Guy Oseary Pizza Hut Set,03-29-2018 12:10pm
ccaf3d2c-7bc3-11e8-a10f-02a6691319f3,Jupiter Entertainment Creative Hut,06-29-2018 10:42am
cdefbbd2-4d46-11e7-a943-06d48441b777,FlexWash + Dry Install: Hedley & Bennett,06-09-2017 12:06pm
ce71736e-2bbe-11e8-a50a-060b37ffb723,Swoozie Pizza Hut Set,03-19-2018 02:45pm
ceabf05c-77aa-11e7-8d92-060b37ffb723,Family Hub Install: Karla Quiz,08-02-2017 10:48am
cf880a6e-c96d-11e7-bd47-06d48441b777,YouTube Sundance,11-14-2017 10:58am
cfc3731a-c0e9-11e7-b916-06d48441b777,FlexWash + Dry Install: Kari Jensen,11-03-2017 03:53pm
cfdff528-3761-11e8-b2b0-02fd0a47dd48,Brand Bash Creative Hut,04-03-2018 10:09am
d2615808-854c-11e8-bdeb-06d48441b777,Lamorne Morris + YouTube Music Whiteglove,07-11-2018 01:56pm
d57dd792-6a45-11e6-98f2-060b37ffb723,SXSW Airstream Day 3,08-24-2016 02:58pm
d7a0e892-7305-11e7-b786-06d48441b777,Mushroom 11 | Digital MasterClass,07-27-2017 12:57pm
d928319e-c8cc-11e7-a482-02a6691319f3,YouTube Global Citizen Festival,11-13-2017 03:46pm
df9db238-1e58-11e8-8943-02a6691319f3,Jahleel Coleman Pizza Hut Set,03-02-2018 12:32pm
e0b493b4-a1f5-11e8-a992-02fd0a47dd48,Getty Images Portrait Studio & Lounge SDCC,08-17-2018 01:16am
e10258d6-4bcc-11e7-9c71-02a6691319f3,Warner Brothers Agency Day,06-07-2017 03:01pm
e14ec2b6-e1c7-11e7-b666-02a6691319f3,LG SIGNATURE Art Basel,12-15-2017 10:43am
e166c1ae-c0de-11e7-9184-060b37ffb723,Family Hub Install: Julie Deily,11-03-2017 02:35pm
e1d3042e-a930-11e7-a42f-06b20b8677ed,Hispanic Heritage - Google Play Content Outreach,10-04-2017 11:21am
e586354a-5774-11e7-9540-02a6691319f3,Family Hub Install: Bri Emery,06-22-2017 11:02am
e5baeaf2-8a8c-11e6-b53d-02a6691319f3,UTA Music Agency Day,10-04-2016 04:47pm
e74e07e6-bdca-11e8-ad0c-02fd0a47dd48,Samsung Holiday Program,09-21-2018 11:19am
e9340870-bdcb-11e8-8792-02a6691319f3,"Samsung Home Appliances x Jennifer Borget ?Wash Today, Fold Eventually? Content Piece",09-21-2018 11:26am
eaa7a61e-102c-11e8-b627-060b37ffb723,The Gersh Agency Creative Hut,02-12-2018 11:42am
ebcdd724-83b9-11e8-b48c-02fd0a47dd48,Milo Ventimiglia Pizza Hut Set,07-09-2018 01:51pm
ed3d2d70-02c8-11e8-aa34-06b20b8677ed,Airbnb + Sundance 2018,01-26-2018 10:44am
edfc490a-7910-11e6-82ac-027a430c0995,1:1 Meeting: Paul Oakenfold,09-12-2016 10:47am
ee46698c-c35a-11e7-9293-060b37ffb723,Family Hub Install: Becki Owens,11-06-2017 05:28pm
ef8a7c90-7bd1-11e8-82c1-060b37ffb723,CAA Directors Creative Hut,06-29-2018 12:23pm
f19e4304-4aa7-11e9-91cc-06348f3ebed8,Pizza Hut Final Four 2019 Hit List,03-19-2019 05:34pm
f4209f68-89b1-11e7-ad75-027a430c0995,Family Hub Install: Chef Gerry G. Garvin,08-25-2017 09:25am
f507dbb4-2bc1-11e8-919c-060b37ffb723,Joe Zee Pizza Hut Set,03-19-2018 03:07pm
f5d65b24-2bca-11e9-90d3-022500f56390,MINI_Evergreen MINI Loan Program,02-08-2019 09:57am
f6565828-2bcb-11e9-adfc-06348f3ebed8,MINI_Farmers Market_2018,02-08-2019 10:04am
f797652a-61a5-11e7-a3ca-02a6691319f3,Family Hub & FlexWash + Dry Install: Jessica Reed Kraus,07-05-2017 10:18am
f7dde3da-5145-11e7-a28e-06d48441b777,E3 2017 Welcome Dinner,06-14-2017 02:11pm
f8a1dfca-c967-11e7-9cf9-027a430c0995,YouTube Streamys,11-14-2017 10:16am
f9f64f4e-1b3f-11e8-a81c-06d48441b777,Family Hub Install: Caroline Styne,02-26-2018 01:57pm
fa84f15e-8921-11e8-9ba6-06b20b8677ed,Humza Deas Pizza Hut Set,07-16-2018 10:59am
fac3a980-6b1e-11e6-ac15-027a430c0995,Family Hub Install: Sasha & Emma,08-25-2016 04:52pm
fb10d83c-86c8-11e8-b670-06b20b8677ed,THE h.wood GROUP Whitelisting Lunch,07-13-2018 11:17am
fcabe9fe-134f-11e7-99b9-02a6691319f3,BAWSE Launch Party,03-27-2017 05:46pm
fe239c3e-9d86-11e7-a380-06b20b8677ed,FlexWash + Dry Install: Janene Crossley,09-19-2017 03:07pm
ff4bfb62-8dd0-11e7-b024-02a6691319f3,FlexWash + Dry Install: Sasha and Emma,08-30-2017 03:17pm
ff6b27ba-006e-11e8-a736-06b20b8677ed,LG SIGNATURE Media Event,01-23-2018 10:55am
