agent_name,rep_name,title
ICM Partners,Steve Alexander,"Partner
(Talent Agent)"
ICM Partners,Taryn Ariel,
ICM Partners,Ian Arougheti,Talent Agent
ICM Partners,Dennis Ashley,Talent Agent
ICM Partners,Celestine Au,Talent Agent
ICM Partners,Rose Aykroyd,Talent Agent
ICM Partners,Dan Baime,"Partner
(Talent Agent)"
ICM Partners,Lisa Bankoff,Talent Agent
ICM Partners,Jeff Barry,Talent Agent
ICM Partners,Lorrie Bartlett,"Partner
(Talent Agent)"
ICM Partners,Andrea Barzvi,Talent Agent
ICM Partners,Spencer Baumgarten,Talent Agent
ICM Partners,Christina Bazdekis,Talent Agent
ICM Partners,Marty Beck,Talent Agent
ICM Partners,Danielle Beckford,"concerts department
(Talent Agent)"
ICM Partners,Kimberly Behzadi,"Motion Picture Talent
(Assistant)"
ICM Partners,Branden Berger,
ICM Partners,Bonnie Bernstein,"Partner
(Talent Agent)"
ICM Partners,Ron Bernstein,"TV / Film
(Talent Agent)"
ICM Partners,Mitch Blackman,Talent Agent
ICM Partners,Boaty Boatwright,Talent Agent
ICM Partners,Steven Brown,Talent Agent
ICM Partners,Craig Bruck,"Music Booking Agent
(Talent Agent)"
ICM Partners,John Burnham,"Partner
(Executive)"
ICM Partners,Phil Casey,"Concerts
(Talent Agent)"
ICM Partners,Katie Cates,"Literary
(Talent Agent)"
ICM Partners,Courtny Catzel,Talent Agent
ICM Partners,Lia Chan,Talent Agent
ICM Partners,Ted Chervin,Talent Agent
ICM Partners,Daniel Cohan,
ICM Partners,Ayala Cohen,Talent Agent
ICM Partners,Carter Cohn,"Partner
(Talent Agent)"
ICM Partners,Lex Conboy,Talent Agent
ICM Partners,Cullen Conly,"Motion Picture Literary
(Talent Agent)"
ICM Partners,Harley Copen,"Co-Head of Motion Picture Literary
(Talent Agent)"
ICM Partners,Kevin Crotty,"Partner
(Talent Agent)"
ICM Partners,Kristine Dahl,"Partner Publishing
(Talent Agent)"
ICM Partners,Val Day,Talent Agent
ICM Partners,Grant Derkac,"Agent
(Talent Agent)"
ICM Partners,Hrishi Desai,Talent Agent
ICM Partners,Nathalie Didier,Talent Agent
ICM Partners,Bryan Diperstein,"Literary
(Talent Agent)"
ICM Partners,Toni Domenech,Coordinator
ICM Partners,Dan Donahue,"Partner
(Talent Agent)"
ICM Partners,Sarah Early,"Digital Strategy Division
(Talent Agent)"
ICM Partners,Jordan Elizabeth,Assistant
ICM Partners,Rebecca Ewing,Talent Agent
ICM Partners,Rebecca Ewing,"Literary Agent
(Talent Agent)"
ICM Partners,Madeline Feder,Talent Agent
ICM Partners,Patrick Feldman,"Iinternational TV
(Talent Agent)"
ICM Partners,Ian Fintak,Talent Agent
ICM Partners,Kaitlyn Flynn,Talent Agent
ICM Partners,Josie Freedman,Talent Agent
ICM Partners,Sean Freidin,"Literary
(Talent Agent)"
ICM Partners,Ally Frohman,"Manager Corporate Communications
(Manager)"
ICM Partners,Jess Frohman,"concerts department
(Talent Agent)"
ICM Partners,Joe Funicello,Talent Agent
ICM Partners,Brice Gaeta,Talent Agent
ICM Partners,Robert Gibbs,"Concerts
(Talent Agent)"
ICM Partners,Jack Gilardi,Talent Agent
ICM Partners,Adam Ginivisian,Talent Agent
ICM Partners,Diana Glazer,"Theater
(Talent Agent)"
ICM Partners,Carol Goll,Talent Agent
ICM Partners,Laura Gordon,"Television Literary
(Talent Agent)"
ICM Partners,Mark Gordon,"Head of TV Literary
(Talent Agent)"
ICM Partners,Hildy Gottlieb,"Partner
(Talent Agent)"
ICM Partners,Shade Grant,"International Television and Media
(Talent Agent)"
ICM Partners,Rich Green,"Media Rights
(Talent Agent)"
ICM Partners,Rich Green,"Media Rights Department
(Talent Agent)"
ICM Partners,Ava Greenfield,Talent Agent
ICM Partners,Philip Grenz,Talent Agent
ICM Partners,Amy Grgich,Talent Agent
ICM Partners,Michael Grinspan,"Comedy Touring Agent
(Talent Agent)"
ICM Partners,Sloan Harris,"Partner
(Talent Agent)"
ICM Partners,Patrick Herold,Talent Agent
ICM Partners,Paul Hook,"Partner
(Executive)"
ICM Partners,Erik Horine,"Television Literary
(Talent Agent)"
ICM Partners,Will Horowitz,
ICM Partners,Chris Horsman,Talent Agent
ICM Partners,Toni Howard,"Partner
(Talent Agent)"
ICM Partners,Kevin Hussey,"Agent
(Talent Agent)"
ICM Partners,Gordon Hvolka,Talent Agent
ICM Partners,Justin Ianda,Talent Agent
ICM Partners,Zach Iser,
ICM Partners,Hillary Jacobson,
ICM Partners,Chuck James,"Partner
(Talent Agent)"
ICM Partners,Kevin Jergenson,"international touring
(Talent Agent)"
ICM Partners,Jennifer Joel,
ICM Partners,Andrea Johnson,"Concerts
(Talent Agent)"
ICM Partners,Doug Johnson,Talent Agent
ICM Partners,Michael Kagan,"Partner
(Talent Agent)"
ICM Partners,Heather Karpas,
ICM Partners,Bruce Kaufman,"Literary Agent
(Talent Agent)"
ICM Partners,Sarah R. Kelly,Talent Agent
ICM Partners,April King,Talent Agent
ICM Partners,William Kircher,
ICM Partners,Kati Kolben,Talent Agent
ICM Partners,Kristen Konvitz,"International and Independent Film
(Talent Agent)"
ICM Partners,Christopher J. Kosek,"Assistant to Bruce Kaufman
(Assistant)"
ICM Partners,Tyler Kroos,Talent Agent
ICM Partners,Andrew Kurland,Talent Agent
ICM Partners,Jessica Lacy,Talent Agent
ICM Partners,Pippa Lambert,Talent Agent
ICM Partners,Laurence Leader,"International Concert Agent
(Talent Agent)"
ICM Partners,Steve Levine,"Partner Co-Head of Worldwide Concerts
(Talent Agent)"
ICM Partners,Richard Levy,"Partner
(Talent Agent)"
ICM Partners,Sean Liebowitz,Talent Agent
ICM Partners,Tad Lumpkin,
ICM Partners,Doug MacLaren,"Co-Head of Motion Picture Literary
(Talent Agent)"
ICM Partners,Alexandra H. Machinist,Talent Agent
ICM Partners,Brian Mann,"Partner
(Talent Agent)"
ICM Partners,Scott Mantell,"Talent Agent
(Talent Agent)"
ICM Partners,Tom Marquardt,Talent Agent
ICM Partners,Kristine Marshall,Talent Agent
ICM Partners,Hilary McQuaide,Talent Agent
ICM Partners,Andrea Nelson Meigs,Talent Agent
ICM Partners,J.C. Mills,"International Television and Media
(Talent Agent)"
ICM Partners,Maxwell Mitcheson,Talent Agent - Branding
ICM Partners,Niki Montazaran,Talent Agent-Literary
ICM Partners,Andrew Mosko,Assistant
ICM Partners,Mo Mostashari,Talent Agent
ICM Partners,Ann Murphy,"Agent
(Talent Agent)"
ICM Partners,Matthew Murray,"Digital Strategy Division
(Talent Agent)"
ICM Partners,Esther Newberg,"Partner
(Talent Agent)"
ICM Partners,Pier Nirandara,"Motion Picture Literary Coordinator
(Talent Agent)"
ICM Partners,Dan Norton,"TV Literary
(Talent Agent)"
ICM Partners,Dan Norton,"TV Lit Agent
(Talent Agent)"
ICM Partners,Janet Carol Norton,"Partner
(Talent Agent)"
ICM Partners,Melissa Orton,"Literary
(Talent Agent)"
ICM Partners,Brett Pacis,Talent Agent
ICM Partners,Scott Pang,"Music
(Talent Agent)"
ICM Partners,Jonathan Perelman,"digital strategy
(Talent Agent)"
ICM Partners,Keyvan Peymani,Talent Agent
ICM Partners,Yves Pierre,"urban division
(Talent Agent)"
ICM Partners,Rory Platt,"Talent Agent
(Talent Agent)"
ICM Partners,Rob Prinz,"Partner Co-Head of Worldwide Concerts
(Talent Agent)"
ICM Partners,Kathleen Remington,Talent Agent
ICM Partners,J.R. Ringer,Talent Agent
ICM Partners,Brandy Rivers,"Literary
(Talent Agent)"
ICM Partners,James Robins Early,Talent Agent
ICM Partners,Andrew Rogers,Talent Agent
ICM Partners,Dar Rollins,"Partner
(Talent Agent)"
ICM Partners,Lara Polivka Sackett,Talent Agent
ICM Partners,Chris Salinas,"Comedy Touring
(Talent Agent)"
ICM Partners,Lindsay Samakow,
ICM Partners,Zoe Sandler,Talent Agent
ICM Partners,Michelle Scarbrough,Talent Agent
ICM Partners,Heather Schroder,
ICM Partners,Adam Schweitzer,"Partner
(Talent Agent)"
ICM Partners,Ruthanne Secunda,"Television
(Talent Agent)"
ICM Partners,Karen Sellars,
ICM Partners,Julia Senerth,"concerts department
(Talent Agent)"
ICM Partners,Craig Shapiro,Talent Agent
ICM Partners,Bennett Sherman,"digital
(Talent Agent)"
ICM Partners,Mark Siegel,"Booking Agent
(Talent Agent)"
ICM Partners,Chris Silbermann,"Partner
(Talent Agent)"
ICM Partners,Dana Sims,Talent Agent
ICM Partners,Chris Smith,"Partner Concerts
(Talent Agent)"
ICM Partners,Matt Smith,Talent Agent
ICM Partners,Matt Sorger,"Agent
(Talent Agent)"
ICM Partners,Andy Stabile,
ICM Partners,Joey Stanton,Talent Agent
ICM Partners,Pete Stone,Talent Agent
ICM Partners,Nick Storch,"Music
(Talent Agent)"
ICM Partners,Lawrence Stuart,Talent Agent
ICM Partners,Howie Tanenbaum,"TV Lit
(Talent Agent)"
ICM Partners,Peter Trinh,"Independent and International Films
(Talent Agent)"
ICM Partners,Amanda Urban,"Partner
(Talent Agent)"
ICM Partners,Peter Van Steemburg,"International and Independent Film
(Executive)"
ICM Partners,Marsha Vlasic,"Concerts
(Talent Agent)"
ICM Partners,Chris Von Goetz,"Partner
(Talent Agent)"
ICM Partners,Ryan Wackerman,"International Television and Media
(Talent Agent)"
ICM Partners,Bart Walker,"Partner
(Talent Agent)"
ICM Partners,Will Watkins,Talent Agent
ICM Partners,Ross Weiner,Talent Agent
ICM Partners,Ross Weiner,Theater Agent
ICM Partners,Tina Wexler,"Literary Agent
(Talent Agent)"
ICM Partners,Nikki Wheeler,"Music
(Talent Agent)"
ICM Partners,Joanne Roberts Wiles,"Partner & Lit Talent Agent
(Talent Agent)"
ICM Partners,Lauren Williams,Talent Agent
ICM Partners,Madison Wojciechowski,"Global Branded Entertainment Department
(Talent Agent)"
ICM Partners,Eddy Yablans,"Partner
(Talent Agent)"
ICM Partners,Caroline Yim,"Concerts
(Talent Agent)"
ICM Partners,Jeremy Zelikovic,"Assistant - MP Below the Line
(Assistant)"
ICM Partners,Bob Zievers,Talent Agent
William Morris Endeavor (WME) Entertainment,Cindy Agi,Talent Agent
William Morris Endeavor (WME) Entertainment,Brian Ahern,Talent Agent
William Morris Endeavor (WME) Entertainment,Adriana Alberghetti,Talent Agent
William Morris Endeavor (WME) Entertainment,Lance Alleman,"Country Music
(Talent Agent)"
William Morris Endeavor (WME) Entertainment,Dan Aloni,"Partner
(Talent Agent)"
William Morris Endeavor (WME) Entertainment,Alexandra Amin,Talent Agent
William Morris Endeavor (WME) Entertainment,Mark Ankner,"Partner WME Global
(Talent Agent)"
William Morris Endeavor (WME) Entertainment,Obi Asika,Talent Agent
William Morris Endeavor (WME) Entertainment,Don Aslan,"Business Affairs
(Executive)"
William Morris Endeavor (WME) Entertainment,Lindsay Aubin,"Talent Agent
(Talent Agent)"
William Morris Endeavor (WME) Entertainment,Joe Austin,"Agent
(Talent Agent)"
William Morris Endeavor (WME) Entertainment,Destin Bass,Floor Manager
Creative Artists Agency (CAA),Ryan Abboushi,Talent Agent
William Morris Endeavor (WME) Entertainment,Allysa Bauer,"TV Literary Department
(Talent Agent)"
William Morris Endeavor (WME) Entertainment,Hanley Baxter,Talent Agent
William Morris Endeavor (WME) Entertainment,Jordan Bazant,"sports
(Talent Agent)"
William Morris Endeavor (WME) Entertainment,Brodie Becker,Talent Agent
William Morris Endeavor (WME) Entertainment,Rob Beckham,"Music
(Talent Agent)"
William Morris Endeavor (WME) Entertainment,Tina Bennett,"Literary
(Talent Agent)"
William Morris Endeavor (WME) Entertainment,T.J. Bernardy,Talent Agent
William Morris Endeavor (WME) Entertainment,Michele Bernstein,"partner
(Talent Agent)"
William Morris Endeavor (WME) Entertainment,Kimberly Bialek,"Motion Picture Lit
(Talent Agent)"
William Morris Endeavor (WME) Entertainment,Josh Bider,"Talent Agent
(Talent Agent)"
William Morris Endeavor (WME) Entertainment,Floyd Bocox,"Srvice president of the west coast division
(Executive)"
William Morris Endeavor (WME) Entertainment,Michelle Bohan,Talent Agent
William Morris Endeavor (WME) Entertainment,Alec Botnick,Talent Agent
William Morris Endeavor (WME) Entertainment,John Branigan,"Music
(Talent Agent)"
Creative Artists Agency (CAA),Jenna Adler,Talent Agent
Creative Artists Agency (CAA),Jesse Adler,"CAA Sports
(Executive)"
Creative Artists Agency (CAA),Rachel Adler,Talent Agent
Creative Artists Agency (CAA),Elizabeth Allison,Assistant
Creative Artists Agency (CAA),Tyler Amato,"Agent
(Talent Agent)"
Creative Artists Agency (CAA),Christian Amechi,Talent Agent
Creative Artists Agency (CAA),Chris Andrews,Talent Agent
Creative Artists Agency (CAA),Rowena Arguelles,Talent Agent
Creative Artists Agency (CAA),Trace Armstrong,"Agent
(Talent Agent)"
Creative Artists Agency (CAA),Trevor Astbury,"Motion Picture Literary
(Talent Agent)"
Creative Artists Agency (CAA),Jay Baker,Talent Agent
Creative Artists Agency (CAA),Nez Balelo,"sports
(Talent Agent)"
Creative Artists Agency (CAA),David Ball,"music
(Talent Agent)"
Creative Artists Agency (CAA),Emma Banks,"Music
(Talent Agent)"
William Morris Endeavor (WME) Entertainment,SuzAnn Branter,Talent Agent
William Morris Endeavor (WME) Entertainment,Joe Brauner,Talent Agent
William Morris Endeavor (WME) Entertainment,Norman Brokaw,Talent Agent
William Morris Endeavor (WME) Entertainment,Theresa Brown,"Lectures Division
(Talent Agent)"
William Morris Endeavor (WME) Entertainment,Christopher Burke,Talent Agent
William Morris Endeavor (WME) Entertainment,John Buzzetti,"Head of Theatrical Department
(Talent Agent)"
William Morris Endeavor (WME) Entertainment,Francesco Caccamo,Talent Agent
William Morris Endeavor (WME) Entertainment,Mari Cardoos,"Commercials Agent
(Talent Agent)"
William Morris Endeavor (WME) Entertainment,Nir Caspi,"Talent Agent-Hosting
(Talent Agent)"
William Morris Endeavor (WME) Entertainment,Jordan Cerf,Talent Agent
William Morris Endeavor (WME) Entertainment,Scott Chaloff,Talent Agent
William Morris Endeavor (WME) Entertainment,Esther Chang,"Partner
(Talent Agent)"
William Morris Endeavor (WME) Entertainment,Sharon Chang,Talent Agent
William Morris Endeavor (WME) Entertainment,Simon Clarkson,Talent Agent
William Morris Endeavor (WME) Entertainment,Bill Clegg,Talent Agent
William Morris Endeavor (WME) Entertainment,Brian Clisham,Talent Agent
Creative Artists Agency (CAA),J.P. Barry,"Hockey
(Talent Agent)"
Creative Artists Agency (CAA),Christine Belden,Talent Agent
Creative Artists Agency (CAA),Lindsey Bender,"Agent
(Talent Agent)"
Creative Artists Agency (CAA),Jordan Berg,Talent Agent
Creative Artists Agency (CAA),Alan Berger,Talent Agent
Creative Artists Agency (CAA),Alan Berger,"TV
(Talent Agent)"
Creative Artists Agency (CAA),Adam Berkowitz,"Co-Head of Television
(Talent Agent)"
Creative Artists Agency (CAA),Jeff Berry,"CFO
(Executive)"
Creative Artists Agency (CAA),Rosanna Bilow,"TV
(Talent Agent)"
Creative Artists Agency (CAA),Adam Biren,Talent Agent
Creative Artists Agency (CAA),Matt Blake,Talent Agent
Creative Artists Agency (CAA),Ann Blanchard,Talent Agent
Creative Artists Agency (CAA),Olivia Blaustein,"TV Literary
(Talent Agent)"
Creative Artists Agency (CAA),Brian Boone,"Motion Picture Talent
(Talent Agent)"
William Morris Endeavor (WME) Entertainment,Brian Cohen,"Music Division
(Talent Agent)"
William Morris Endeavor (WME) Entertainment,Tanya Cohen,Talent Agent
William Morris Endeavor (WME) Entertainment,Julie Colbert,Talent Agent
William Morris Endeavor (WME) Entertainment,Strand Conover,Talent Agent
William Morris Endeavor (WME) Entertainment,Erin Conroy,Talent Agent
William Morris Endeavor (WME) Entertainment,Rich Cook,"Literary Agent
(Talent Agent)"
William Morris Endeavor (WME) Entertainment,Liesl Copland,"Partner Independent Film
(Talent Agent)"
William Morris Endeavor (WME) Entertainment,Tim Curtis,"Partner Celebrity Endorsements & Animation
(Talent Agent)"
William Morris Endeavor (WME) Entertainment,Christine D'Souza,Talent Agent
William Morris Endeavor (WME) Entertainment,Molly Daines,Motion Picture Literature
William Morris Endeavor (WME) Entertainment,Ben Davis,Talent Agent
William Morris Endeavor (WME) Entertainment,Hannah Davis,Talent Agent
William Morris Endeavor (WME) Entertainment,Jad Dayeh,"TV-Nonscripted
(Talent Agent)"
William Morris Endeavor (WME) Entertainment,Brian DePersia,"Partner
(Talent Agent)"
William Morris Endeavor (WME) Entertainment,Anna DeRoy,Talent Agent
Creative Artists Agency (CAA),Alan Braun,Talent Agent
Creative Artists Agency (CAA),Tracy Brennan,"Co-Head Motion Picture Talent
(Executive)"
Creative Artists Agency (CAA),Adam Brill,Talent Agent
Creative Artists Agency (CAA),Sam Bringardner,"motion picture talent department
(Talent Agent)"
Creative Artists Agency (CAA),Pat Brisson,"Head Sports Hockey
(Executive)"
Creative Artists Agency (CAA),Pierre Brogan,"TV
(Talent Agent)"
Creative Artists Agency (CAA),Jonas Brooks,Talent Agent - TV Literary
Creative Artists Agency (CAA),Rhys Broussard,"Motion Pictures
(Talent Agent)"
Creative Artists Agency (CAA),Matt Brownstein,"baseball
(Talent Agent)"
Creative Artists Agency (CAA),Dave Bugliari,Talent Agent
Creative Artists Agency (CAA),Jim Butler,"Music
(Talent Agent)"
Creative Artists Agency (CAA),Justin Cahill,"music department
(Talent Agent)"
Creative Artists Agency (CAA),John Campisi,Talent Agent
Creative Artists Agency (CAA),Christian Carino,"Commercial Endorsement
(Talent Agent)"
William Morris Endeavor (WME) Entertainment,Michael DeVeau,Talent Agent
William Morris Endeavor (WME) Entertainment,Deadmau5,"Partner Music
(Talent Agent)"
William Morris Endeavor (WME) Entertainment,Kenny Dicamillo,Talent Agent
William Morris Endeavor (WME) Entertainment,Bethany Dick,"Talent Agent
(Talent Agent)"
William Morris Endeavor (WME) Entertainment,Ryan Draizin,"TV-Scripted
(Talent Agent)"
William Morris Endeavor (WME) Entertainment,Zach Druker,"Partner TV Literary
(Executive)"
William Morris Endeavor (WME) Entertainment,Ann Du Val,"Business Affairs
(Legal)"
William Morris Endeavor (WME) Entertainment,Jerome Duboz,Talent Agent
William Morris Endeavor (WME) Entertainment,Andrew Dunlap,"Partner
(Talent Agent)"
William Morris Endeavor (WME) Entertainment,Travis Dunlap,"Agent
(Talent Agent)"
William Morris Endeavor (WME) Entertainment,Lindsay Dunn,"TV Literary Agent
(Talent Agent)"
William Morris Endeavor (WME) Entertainment,Brian Edelman,"Talent Agent
(Talent Agent)"
William Morris Endeavor (WME) Entertainment,Brian Edelman,Talent Agent
William Morris Endeavor (WME) Entertainment,Ari Emanuel,"Co-CEO
(Executive)"
William Morris Endeavor (WME) Entertainment,Simon Faber,Talent Agent
Creative Artists Agency (CAA),Sue Carls,"Motion Picture Literary
(Talent Agent)"
Creative Artists Agency (CAA),Cat Carson,
Creative Artists Agency (CAA),Courtney Carter,Talent Agent
Creative Artists Agency (CAA),Jon Cassir,"Motion Pictures
(Talent Agent)"
Creative Artists Agency (CAA),Justin Castillo,"Sports
(Talent Agent)"
Creative Artists Agency (CAA),Paul Cazers,Talent Agent
Creative Artists Agency (CAA),Erin Culley La Chapelle,Talent Agent
Creative Artists Agency (CAA),Matt Chazen,Talent Agent
Creative Artists Agency (CAA),Mark Cheatham,"Music
(Talent Agent)"
Creative Artists Agency (CAA),Jie Chen,Talent Agent
Creative Artists Agency (CAA),Christina Chou,"Agent
(Talent Agent)"
Creative Artists Agency (CAA),Nancy Chou,Talent Agent
Creative Artists Agency (CAA),Scott Clayton,"Music
(Talent Agent)"
Creative Artists Agency (CAA),Joe Cohen,Talent Agent
William Morris Endeavor (WME) Entertainment,James Farrell,Talent Agent
William Morris Endeavor (WME) Entertainment,Ryan Feldman,"Agent - Motion Pictures
(Talent Agent)"
William Morris Endeavor (WME) Entertainment,Michael Fera,Talent Agent
William Morris Endeavor (WME) Entertainment,Jordan Fife,
William Morris Endeavor (WME) Entertainment,C.J. Fight,Talent Agent
William Morris Endeavor (WME) Entertainment,Andrew Finkelstein,"Motion Picture Agent
(Talent Agent)"
William Morris Endeavor (WME) Entertainment,Chris Fioto,Talent Agent
William Morris Endeavor (WME) Entertainment,Ivo Fischer,Talent Agent
William Morris Endeavor (WME) Entertainment,Wayne Fitterman,"Partner Production
(Talent Agent)"
William Morris Endeavor (WME) Entertainment,Ashley Fox,"Book to Film)
(Talent Agent)"
William Morris Endeavor (WME) Entertainment,Ioris Francini,"Co-president
(Executive)"
William Morris Endeavor (WME) Entertainment,George Freeman,Talent Agent
William Morris Endeavor (WME) Entertainment,Keith Friedenberg,administration
William Morris Endeavor (WME) Entertainment,Blake Fronstin,Talent Agent
William Morris Endeavor (WME) Entertainment,Richard Gambale,Talent Agent
Creative Artists Agency (CAA),Anjelica Cohn,Talent Agent
Creative Artists Agency (CAA),Rob Coleman,Agent
Creative Artists Agency (CAA),Tom Condon,"Sports
(Talent Agent)"
Creative Artists Agency (CAA),Kevin Cooper,"TV
(Talent Agent)"
Creative Artists Agency (CAA),Michael Cooper,Talent Agent
Creative Artists Agency (CAA),Erin Culley,Talent Agent
Creative Artists Agency (CAA),Aubree Curtis,CAA Foundation
Creative Artists Agency (CAA),Maha Dakhil,"Literary
(Talent Agent)"
Creative Artists Agency (CAA),Angela Dallas,"TV Literary
(Talent Agent)"
Creative Artists Agency (CAA),Jimmy Darmody,"Co-Head Motion Picture Talent
(Executive)"
William Morris Endeavor (WME) Entertainment,Avi Gandhi,"Agent (Digital Media)
(Talent Agent)"
William Morris Endeavor (WME) Entertainment,Alexis Garcia,"Partner Independent Film
(Talent Agent)"
William Morris Endeavor (WME) Entertainment,Marc Geiger,"EVP Contemorary Music
(Talent Agent)"
William Morris Endeavor (WME) Entertainment,Adam Gelvan,Talent Agent
William Morris Endeavor (WME) Entertainment,Miles Gidaly,"Commercials
(Talent Agent)"
William Morris Endeavor (WME) Entertainment,Jill Gillett,"co-heads of Book to Film/TV division
(Talent Agent)"
William Morris Endeavor (WME) Entertainment,Henry Glascock,Talent Agent
Creative Artists Agency (CAA),Ashley Davis,Talent Agent
Creative Artists Agency (CAA),Missy Davy,"Communications
(Executive)"
Creative Artists Agency (CAA),Matt DelPiano,Talent Agent
Creative Artists Agency (CAA),Joe Della Rosa,"Film Finance and Sales
(Talent Agent)"
Creative Artists Agency (CAA),Marc Dennis,"Music
(Talent Agent)"
Creative Artists Agency (CAA),Adam Devejian,Talent Agent
Creative Artists Agency (CAA),Ben Dey,Talent Agent
Creative Artists Agency (CAA),Jessica DiBiase,Talent Agent
Creative Artists Agency (CAA),Evan Dick,
Creative Artists Agency (CAA),Tara Dorfman,Talent Agent
Creative Artists Agency (CAA),Dominicus Doriat,"CAA Sports Consulting Germany
(Talent Agent)"
William Morris Endeavor (WME) Entertainment,Suzanne Gluck,"Books
(Talent Agent)"
William Morris Endeavor (WME) Entertainment,Tony Goldring,"Music Division
(Talent Agent)"
William Morris Endeavor (WME) Entertainment,Bradley Goodman,Talent Agent
William Morris Endeavor (WME) Entertainment,Jeff Googel,"Partner
(Talent Agent)"
William Morris Endeavor (WME) Entertainment,Alicia Gordon,"Literary
(Talent Agent)"
William Morris Endeavor (WME) Entertainment,Jeff Gorin,Talent Agent
William Morris Endeavor (WME) Entertainment,Roger Green,Talent Agent
William Morris Endeavor (WME) Entertainment,Danny Greenberg,"Features
(Talent Agent)"
William Morris Endeavor (WME) Entertainment,Ari Greenburg,Talent Agent
William Morris Endeavor (WME) Entertainment,Jeffrey Greller,Talent Agent
William Morris Endeavor (WME) Entertainment,Peter Gross,Assistant
William Morris Endeavor (WME) Entertainment,Sean Grumman,
William Morris Endeavor (WME) Entertainment,Annabel Gualazzi,Talent Agent
William Morris Endeavor (WME) Entertainment,Alix Gucovsky,Talent Agent
William Morris Endeavor (WME) Entertainment,Jonny Gutman,Talent Agent
Creative Artists Agency (CAA),Natalie Drye,"Sports
(Executive)"
Creative Artists Agency (CAA),Brian Duckler,"Sports Consulting
(Talent Agent)"
Creative Artists Agency (CAA),Sophie Duong,Talent Agent
Creative Artists Agency (CAA),J.P. Duprey,
Creative Artists Agency (CAA),Justin Edbrooke,"Agent
(Talent Agent)"
Creative Artists Agency (CAA),Marissa Edler,"Sports
(Talent Agent)"
Creative Artists Agency (CAA),Geoff Edwards,Executive
Creative Artists Agency (CAA),Matthew Elefant,"Sports
(Talent Agent)"
Creative Artists Agency (CAA),Andy Elkin,"TV
(Talent Agent)"
Creative Artists Agency (CAA),Luke Esselen,"motion picture talent department
(Talent Agent)"
Creative Artists Agency (CAA),Greg Essig,"Games
(Talent Agent)"
Creative Artists Agency (CAA),Rod Essig,Talent Agent
Creative Artists Agency (CAA),Nancy Etz,"TV
(Talent Agent)"
Creative Artists Agency (CAA),Tony Etz,"TV
(Talent Agent)"
William Morris Endeavor (WME) Entertainment,Paul Haas,Talent Agent
William Morris Endeavor (WME) Entertainment,Lisa Harrison,"Partner
(Talent Agent)"
William Morris Endeavor (WME) Entertainment,Amy Hasselbeck,"Business Affairs
(Executive)"
William Morris Endeavor (WME) Entertainment,Missy Hauser,Assistant
William Morris Endeavor (WME) Entertainment,David He,Talent Agent
William Morris Endeavor (WME) Entertainment,Rob Heller,"VP Music
(Talent Agent)"
William Morris Endeavor (WME) Entertainment,Scott Henderson,Talent Agent
William Morris Endeavor (WME) Entertainment,Kevin Hill,Talent Agent
William Morris Endeavor (WME) Entertainment,Nick Hoagland,Talent Agent
William Morris Endeavor (WME) Entertainment,Greg Hodes,Talent Agent
William Morris Endeavor (WME) Entertainment,Jason Hodes,Talent Agent
William Morris Endeavor (WME) Entertainment,Abe Cohen Hoffing,Talent Agent
William Morris Endeavor (WME) Entertainment,Gayle Holcomb,Talent Agent
William Morris Endeavor (WME) Entertainment,Ashley Holland,"TV
(Talent Agent)"
William Morris Endeavor (WME) Entertainment,Kevin Huffman,Talent Agent
Creative Artists Agency (CAA),J.P. Evans,Talent Agent
Creative Artists Agency (CAA),Jacqueline P. Evans,Talent Agent
Creative Artists Agency (CAA),Jaime Feld,"Motion Picture
(Talent Agent)"
Creative Artists Agency (CAA),Todd Feldman,"Co-Head Motion Picture Literary
(Executive)"
Creative Artists Agency (CAA),Ryan Fitzjohn,"Music
(Talent Agent)"
Creative Artists Agency (CAA),Mike Fonseca,Talent Agent
Creative Artists Agency (CAA),Sam Forbert,"music
(Talent Agent)"
Creative Artists Agency (CAA),Arleta Fowler,Talent Agent
Creative Artists Agency (CAA),Monique Francis,Executive
Creative Artists Agency (CAA),Paul Franklin,"Music
(Talent Agent)"
Creative Artists Agency (CAA),Jeff Frasco,Talent Agent
Creative Artists Agency (CAA),Jeff Freedman,"Business & Legal Affairs
(Executive)"
Creative Artists Agency (CAA),David Freeman,Talent Agent
Creative Artists Agency (CAA),Matt Frost,"Agent
(Talent Agent)"
William Morris Endeavor (WME) Entertainment,Grant Illes,Talent Agent
William Morris Endeavor (WME) Entertainment,William Grant Illes,"Agent
(Talent Agent)"
William Morris Endeavor (WME) Entertainment,Elia Infascelli-Smith,"Literary Agent
(Talent Agent)"
William Morris Endeavor (WME) Entertainment,Cody Irizarry,"Voiceover
(Talent Agent)"
William Morris Endeavor (WME) Entertainment,Allison Irvin,Talent Agent
William Morris Endeavor (WME) Entertainment,Mark Itkin,Talent Agent
William Morris Endeavor (WME) Entertainment,Joe Izzi,Talent Agent
William Morris Endeavor (WME) Entertainment,Coz Jackson,Talent Agent
William Morris Endeavor (WME) Entertainment,Sharon Jackson,"Partner
(Talent Agent)"
William Morris Endeavor (WME) Entertainment,Todd Jacobs,"Music and Commercial Endorsements
(Talent Agent)"
William Morris Endeavor (WME) Entertainment,Chris Jacquemin,Talent Agent
William Morris Endeavor (WME) Entertainment,Holly Jeter,Talent Agent
William Morris Endeavor (WME) Entertainment,Brandt Joel,Talent Agent
Creative Artists Agency (CAA),Maya Fukuzawa,Talent Agent
Creative Artists Agency (CAA),John Garvey,"Motion Picture Literary
(Talent Agent)"
Creative Artists Agency (CAA),Craig Gering,Talent Agent
Creative Artists Agency (CAA),Risa Gertner,"Co-Head Motion Picture Literary
(Executive)"
Creative Artists Agency (CAA),Mollie Glick,
Creative Artists Agency (CAA),Susan Golomb,"Literary
(Talent Agent)"
Creative Artists Agency (CAA),Jae Goodman,Talent Agent
Creative Artists Agency (CAA),Jessica Graboff,"Commercial Endorsements
(Talent Agent)"
Creative Artists Agency (CAA),Andrew Graham,Talent Agent
Creative Artists Agency (CAA),Mike Greek,"Music
(Talent Agent)"
Creative Artists Agency (CAA),Simon Green,"Literary
(Talent Agent)"
Creative Artists Agency (CAA),Jonah Greenberg,Talent Agent
Creative Artists Agency (CAA),Scott Greenberg,Talent Agent
Creative Artists Agency (CAA),David Gross,"Representative
(Talent Agent)"
William Morris Endeavor (WME) Entertainment,E.J. Johnson,"TV-Nonscripted
(Talent Agent)"
William Morris Endeavor (WME) Entertainment,Ryan Blake Jones,"Personal Appearance
(Talent Agent)"
William Morris Endeavor (WME) Entertainment,Nancy Josephson,"Partner TV
(Talent Agent)"
William Morris Endeavor (WME) Entertainment,Brooke Slavik Jung,Talent Agent
William Morris Endeavor (WME) Entertainment,Erin Junkin,"TV Literary
(Talent Agent)"
William Morris Endeavor (WME) Entertainment,David Kalodner,Talent Agent
William Morris Endeavor (WME) Entertainment,Theresa Kang,"Partner TV Literary
(Talent Agent)"
William Morris Endeavor (WME) Entertainment,Vikki Karan,"Client Services
(Executive)"
William Morris Endeavor (WME) Entertainment,Dorian Karchmar,"Partner
(Talent Agent)"
William Morris Endeavor (WME) Entertainment,David Karp,"Motion Picture Literary Partner
(Talent Agent)"
William Morris Endeavor (WME) Entertainment,Stacey Karp,Talent Agent
William Morris Endeavor (WME) Entertainment,Adam Kelly,Talent Agent
William Morris Endeavor (WME) Entertainment,Craig Kestel,Talent Agent
William Morris Endeavor (WME) Entertainment,Sam Kirby,"Music
(Talent Agent)"
William Morris Endeavor (WME) Entertainment,Samantha Kirby,"music partner
(Talent Agent)"
William Morris Endeavor (WME) Entertainment,Lance Klein,Talent Agent
Creative Artists Agency (CAA),Tom Hagan,"Baseball
(Talent Agent)"
Creative Artists Agency (CAA),Chris Harbert,"TV
(Talent Agent)"
Creative Artists Agency (CAA),Jordan Harnsberger,"Sports
(Talent Agent)"
Creative Artists Agency (CAA),Dana Harris,Talent Agent
Creative Artists Agency (CAA),Alix Hartley,"TV
(Talent Agent)"
Creative Artists Agency (CAA),Rob Herting,Talent Agent
Creative Artists Agency (CAA),Peter Hess,Talent Agent
Creative Artists Agency (CAA),Adam Hirsch,"Agent
(Talent Agent)"
Creative Artists Agency (CAA),Adam Hirsch,"Agent
(Talent Agent)"
Creative Artists Agency (CAA),C.C. Hirsch,"TV Literary
(Talent Agent)"
Creative Artists Agency (CAA),Matt Horowitz,Talent Agent
Creative Artists Agency (CAA),Matthew Horowitz,Talent Agent
Creative Artists Agency (CAA),Lee Horvitz,Talent Agent
Creative Artists Agency (CAA),Cait Hoyt,
William Morris Endeavor (WME) Entertainment,Peter Klein,Executive
William Morris Endeavor (WME) Entertainment,Min-Sik Ko,"Video Games
(Talent Agent)"
William Morris Endeavor (WME) Entertainment,Amanda Kogan,"Alternative TV
(Talent Agent)"
William Morris Endeavor (WME) Entertainment,Marc Korman,Talent Agent
William Morris Endeavor (WME) Entertainment,Rob Koslowsky,Talent Agent
William Morris Endeavor (WME) Entertainment,Jessica Kovacevic,Talent Agent
William Morris Endeavor (WME) Entertainment,Maria F. Lanao,Talent Agent
William Morris Endeavor (WME) Entertainment,Mari Cardoos Layne,Talent Agent
William Morris Endeavor (WME) Entertainment,David LeVine,Talent Agent
William Morris Endeavor (WME) Entertainment,Joey Lee,"Music
(Talent Agent)"
William Morris Endeavor (WME) Entertainment,Samantha Leon,Talent Agent
William Morris Endeavor (WME) Entertainment,Jeff Lesh,Talent Agent
William Morris Endeavor (WME) Entertainment,David Levine,"Music
(Talent Agent)"
William Morris Endeavor (WME) Entertainment,Jenni Levine,Talent Agent
William Morris Endeavor (WME) Entertainment,David Levy,"Partner Music
(Talent Agent)"
Creative Artists Agency (CAA),Christine Hsu,"Film Finance and Sales
(Executive)"
Creative Artists Agency (CAA),Cade Hudson,
Creative Artists Agency (CAA),John Huie,Talent Agent
Creative Artists Agency (CAA),Kevin Huvane,"Partner
(Executive)"
Creative Artists Agency (CAA),Jeff Jacobs,"TV
(Talent Agent)"
Creative Artists Agency (CAA),Peter Jacobs,Talent Agent
Creative Artists Agency (CAA),Shelsea Jacobs,"Talent Agent
(Talent Agent)"
Creative Artists Agency (CAA),Charlie Jennings,Talent Agent
Creative Artists Agency (CAA),Amanda Jimenez,Executive
Creative Artists Agency (CAA),Tony Johnsen,"Agent
(Talent Agent)"
Creative Artists Agency (CAA),Jelani Johnson,Talent Agent
Creative Artists Agency (CAA),Meredith Jones,Talent Agent
Creative Artists Agency (CAA),Nancy Jones,"TV
(Talent Agent)"
Creative Artists Agency (CAA),Frank Jung,"TV
(Talent Agent)"
William Morris Endeavor (WME) Entertainment,Samantha Levy,Talent Agent
William Morris Endeavor (WME) Entertainment,Chris Liddell,"CFO
(Executive)"
William Morris Endeavor (WME) Entertainment,Brandon Liebman,"Partner
(Talent Agent)"
William Morris Endeavor (WME) Entertainment,Christopher Lockhart,"Story Editor
(Executive)"
William Morris Endeavor (WME) Entertainment,Sloane Logue,Talent Agent
William Morris Endeavor (WME) Entertainment,Jonathan Lomma,Talent Agent
William Morris Endeavor (WME) Entertainment,Jason Lublin,"COO
(Executive)"
William Morris Endeavor (WME) Entertainment,David Lubliner,"Features
(Talent Agent)"
William Morris Endeavor (WME) Entertainment,Doug Lucterhand,"Partner
(Talent Agent)"
William Morris Endeavor (WME) Entertainment,Alex Luebbert,Talent Agent
William Morris Endeavor (WME) Entertainment,Silvio Lund,Talent Agent
William Morris Endeavor (WME) Entertainment,Eric Lupfer,Talent Agent
William Morris Endeavor (WME) Entertainment,Suzanne Lyon,"Agent
(Talent Agent)"
William Morris Endeavor (WME) Entertainment,Meghan Mackenzie,"Talent Agent
(Talent Agent)"
William Morris Endeavor (WME) Entertainment,Boomer Malkin,"Partner
(Talent Agent)"
William Morris Endeavor (WME) Entertainment,Erin Malone,Talent Agent
Creative Artists Agency (CAA),Bob Kain,"Strategic Advisor Sport
(Executive)"
Creative Artists Agency (CAA),Zach Kaplan,Talent Agent
Creative Artists Agency (CAA),Michael Katcher,"TV
(Talent Agent)"
Creative Artists Agency (CAA),Jacquie Katz,"Television Department
(Talent Agent)"
Creative Artists Agency (CAA),Shelby Kelleher,"Property Sales
(Talent Agent)"
Creative Artists Agency (CAA),Brian Kend,Talent Agent
Creative Artists Agency (CAA),Rob Kenneally,"TV
(Talent Agent)"
Creative Artists Agency (CAA),Bobby Kenner,Talent Agent
Creative Artists Agency (CAA),Grant Kessman,Talent Agent
Creative Artists Agency (CAA),Nick Khan,Talent Agent
Creative Artists Agency (CAA),Daniel Kim,Talent Agent
Creative Artists Agency (CAA),Janet Kim,"Music
(Talent Agent)"
Creative Artists Agency (CAA),Carole Kinzel,Talent Agent
William Morris Endeavor (WME) Entertainment,Karina Manashil,Talent Agent
William Morris Endeavor (WME) Entertainment,Jay Mandel,Talent Agent
William Morris Endeavor (WME) Entertainment,Devin Mann,"Head of Production Department
(Talent Agent)"
William Morris Endeavor (WME) Entertainment,Stacy Mark,"Partner
(Talent Agent)"
William Morris Endeavor (WME) Entertainment,Rob Markus,"Partner Music Division
(Talent Agent)"
William Morris Endeavor (WME) Entertainment,John Marx,Talent Agent
William Morris Endeavor (WME) Entertainment,Andrew Mathes,"Agent
(Talent Agent)"
William Morris Endeavor (WME) Entertainment,Max Maulitz,Talent Agent
William Morris Endeavor (WME) Entertainment,Deborah McIntosh,Talent Agent
William Morris Endeavor (WME) Entertainment,Lindsey McManus,"Talent Agent
(Talent Agent)"
William Morris Endeavor (WME) Entertainment,Ryan McNeily,"Agent (TV Unscripted)
(Talent Agent)"
William Morris Endeavor (WME) Entertainment,Andy McNicol,"Partner Books
(Talent Agent)"
William Morris Endeavor (WME) Entertainment,Arielle Mesirow,"Talent Agent
(Talent Agent)"
William Morris Endeavor (WME) Entertainment,Hilary Zaitz Michael,"iterary Packaging department
(Talent Agent)"
William Morris Endeavor (WME) Entertainment,Nick Miller,Talent Agent
Creative Artists Agency (CAA),Michael Kives,Talent Agent
Creative Artists Agency (CAA),David Kopple,Talent Agent
Creative Artists Agency (CAA),Barry Kotler,Talent Agent
Creative Artists Agency (CAA),Benjamin Kramer,"Film Finance
(Talent Agent)"
Creative Artists Agency (CAA),Matt Kramer,"Agent
(Talent Agent)"
Creative Artists Agency (CAA),Christina Kuo,Talent Agent
Creative Artists Agency (CAA),Rick Kurtzman,Talent Agent
Creative Artists Agency (CAA),Hannah Kuzniecky,Talent Agent
Creative Artists Agency (CAA),Nick Lafferty,"Agent
(Talent Agent)"
Creative Artists Agency (CAA),Steven Lafferty,"Head of Television
(Talent Agent)"
Creative Artists Agency (CAA),Karim Lakhani,Assistant
Creative Artists Agency (CAA),Erica Lancaster,"television
(Talent Agent)"
Creative Artists Agency (CAA),George Lane,"Head of Theatre
(Talent Agent)"
William Morris Endeavor (WME) Entertainment,Duncan Millership,"Partner
(Talent Agent)"
William Morris Endeavor (WME) Entertainment,Clint Mitchell,Talent Agent
William Morris Endeavor (WME) Entertainment,Daniel Molina,Talent Agent
William Morris Endeavor (WME) Entertainment,Carolyn Moneta,"Commercial
(Talent Agent)"
William Morris Endeavor (WME) Entertainment,Gaby Morgerman,Talent Agent
William Morris Endeavor (WME) Entertainment,Brent Morley,"Partner
(Talent Agent)"
William Morris Endeavor (WME) Entertainment,Christian Muirhead,"Head of Corporate Communications
(Publicist)"
William Morris Endeavor (WME) Entertainment,Don Muller,"Music
(Talent Agent)"
William Morris Endeavor (WME) Entertainment,Brittany Myers,"Voice Over Agent
(Talent Agent)"
William Morris Endeavor (WME) Entertainment,Melissa Myers,Talent Agent
William Morris Endeavor (WME) Entertainment,Austin Neal,Talent Agent
William Morris Endeavor (WME) Entertainment,Kevin Neal,"Talent Agent
(Talent Agent)"
William Morris Endeavor (WME) Entertainment,Amos Newman,"Music for Visual Media
(Talent Agent)"
William Morris Endeavor (WME) Entertainment,Robert Newman,Talent Agent
William Morris Endeavor (WME) Entertainment,Kathleen Nishimoto,Talent Agent
William Morris Endeavor (WME) Entertainment,Erin O'Brien,"Commercial
(Talent Agent)"
Creative Artists Agency (CAA),Stephanie Langs,Talent Agent
Creative Artists Agency (CAA),David Larabell,Talent Agent
Creative Artists Agency (CAA),Steven Lashever,Talent Agent
Creative Artists Agency (CAA),Franklin Latt,Talent Agent
Creative Artists Agency (CAA),Carla Laur,"Commercial Agent
(Talent Agent)"
Creative Artists Agency (CAA),Sara Leeb,"Voice-Over
(Talent Agent)"
Creative Artists Agency (CAA),Austin Leshay,
Creative Artists Agency (CAA),Ari Levin,Talent Agent
Creative Artists Agency (CAA),Ben Levine,Talent Agent
Creative Artists Agency (CAA),Michael Levine,"CAA Sports
(Talent Agent)"
Creative Artists Agency (CAA),Peter Levine,Talent Agent
Creative Artists Agency (CAA),Laura Lewis,Talent Agent
William Morris Endeavor (WME) Entertainment,Erin O'Brien,Talent Agent
William Morris Endeavor (WME) Entertainment,Jamie O'Hara,"Commercials
(Talent Agent)"
William Morris Endeavor (WME) Entertainment,Rebecca Oliver,Talent Agent
William Morris Endeavor (WME) Entertainment,Justin Ongert,Talent Agent
William Morris Endeavor (WME) Entertainment,Jim Ornstein,Talent Agent
William Morris Endeavor (WME) Entertainment,Greg Oswald,Talent Agent
William Morris Endeavor (WME) Entertainment,Tomiko Pace,"Accounting Coordinator
(Assistant)"
William Morris Endeavor (WME) Entertainment,Jasan Pagni,Talent Agent
William Morris Endeavor (WME) Entertainment,Solomon Parker,Talent Agent
William Morris Endeavor (WME) Entertainment,Sean Perry,"Partner
(Talent Agent)"
William Morris Endeavor (WME) Entertainment,Maggie Pisacane,"Partner
(Talent Agent)"
William Morris Endeavor (WME) Entertainment,Daniel Porter,"Head of the Digital Department
(Talent Agent)"
William Morris Endeavor (WME) Entertainment,Dani Potter,"Talent Agent
(Talent Agent)"
William Morris Endeavor (WME) Entertainment,Laurie Pozmantier,Talent Agent
Creative Artists Agency (CAA),Amanda Lie,
Creative Artists Agency (CAA),Josh Lieberman,Talent Agent
Creative Artists Agency (CAA),Rob Light,"Head Music Department
(Executive)"
Creative Artists Agency (CAA),Kevin Lin,"Theater
(Talent Agent)"
Creative Artists Agency (CAA),Brett Loncar,"TV
(Talent Agent)"
Creative Artists Agency (CAA),Scott Lonker,"Alternative TV
(Talent Agent)"
Creative Artists Agency (CAA),Brian Loucks,Talent Agent
Creative Artists Agency (CAA),Bryan Lourd,"Partner
(Talent Agent)"
Creative Artists Agency (CAA),Richard Lovett,"President
(Talent Agent)"
Creative Artists Agency (CAA),Joel Lubin,"Co-Head of Motion Picture Talent
(Talent Agent)"
Creative Artists Agency (CAA),Rick Lucas,"Commercial Endorsements
(Talent Agent)"
Creative Artists Agency (CAA),Greg Luckman,"global head of CAA Sports Consulting
(Talent Agent)"
Creative Artists Agency (CAA),Ryan Ly,Talent Agent
Creative Artists Agency (CAA),Danning Ma,Assistant
William Morris Endeavor (WME) Entertainment,Meyash Prabhu,Talent Agent
William Morris Endeavor (WME) Entertainment,Josh Pyatt,"Alternative Television
(Talent Agent)"
William Morris Endeavor (WME) Entertainment,Daisy Quin,Talent Agent
William Morris Endeavor (WME) Entertainment,Steve Rabineau,"Partner Motion Picture Literary
(Talent Agent)"
William Morris Endeavor (WME) Entertainment,Sylvie Rabineau,"co-heads of Book to Film/TV division
(Talent Agent)"
William Morris Endeavor (WME) Entertainment,Bradley Rainey,"Music for Visual Media Agent
(Talent Agent)"
William Morris Endeavor (WME) Entertainment,Ross Raphael,"Agent
(Talent Agent)"
William Morris Endeavor (WME) Entertainment,Philip Raskind,Talent Agent
William Morris Endeavor (WME) Entertainment,Dan Rauter,"Christian Music
(Executive)"
William Morris Endeavor (WME) Entertainment,Eric Reid,"Literary
(Talent Agent)"
William Morris Endeavor (WME) Entertainment,Henry Reisch,Talent Agent
William Morris Endeavor (WME) Entertainment,Lisa Reiter,"Head of WME Speakers
(Talent Agent)"
William Morris Endeavor (WME) Entertainment,Collin Reno,Talent Agent
William Morris Endeavor (WME) Entertainment,Chris Rice,"Agent (Global)
(Talent Agent)"
William Morris Endeavor (WME) Entertainment,Stephanie Ritz,"Partner
(Talent Agent)"
Creative Artists Agency (CAA),Joe Machota,"Head of Theatre
(Talent Agent)"
Creative Artists Agency (CAA),Michael Mand,"Head of Corporate Communication
(Executive)"
Creative Artists Agency (CAA),Joe Mann,Talent Agent
Creative Artists Agency (CAA),Brian Manning,Talent Agent
Creative Artists Agency (CAA),Daniel Manwaring,"Agent
(Talent Agent)"
Creative Artists Agency (CAA),Matt Martin,"Motion Picture Literary
(Talent Agent)"
Creative Artists Agency (CAA),Maria May,"Music
(Talent Agent)"
Creative Artists Agency (CAA),Blake McDaniel,"Agent
(Talent Agent)"
Creative Artists Agency (CAA),Rafael McDonnell,Talent Agent
Creative Artists Agency (CAA),Alex Mebed,"Motion Pictures
(Talent Agent)"
Creative Artists Agency (CAA),Margaret Mendelson,Talent Agent
Creative Artists Agency (CAA),Olivia Metzger,Talent Agent
Creative Artists Agency (CAA),Peter Micelli,"TV
(Talent Agent)"
Creative Artists Agency (CAA),Robert Mickelson,"Agent
(Talent Agent)"
William Morris Endeavor (WME) Entertainment,Hillary Robbie,"Talent Agent Comedy
(Talent Agent)"
William Morris Endeavor (WME) Entertainment,Risha Rodgers,Talent Agent
William Morris Endeavor (WME) Entertainment,Akiko Rogers,"music
(Talent Agent)"
William Morris Endeavor (WME) Entertainment,Jon Rosen,"Director Partner Head of Branded Lifestyle Head of East Coast
(Talent Agent)"
William Morris Endeavor (WME) Entertainment,Rick Rosen,"Head of Television
(Talent Agent)"
William Morris Endeavor (WME) Entertainment,Eric Rovner,Talent Agent
William Morris Endeavor (WME) Entertainment,Alexandra Rowley,Talent Agent
William Morris Endeavor (WME) Entertainment,Derek Sanchez,Talent Agent
William Morris Endeavor (WME) Entertainment,Geoffrey Sandford,Talent Agent
William Morris Endeavor (WME) Entertainment,Keith Sarkisian,"Music
(Talent Agent)"
William Morris Endeavor (WME) Entertainment,Matthew Saul,Talent Agent
William Morris Endeavor (WME) Entertainment,Shannon Saunders,Talent Agent
William Morris Endeavor (WME) Entertainment,Elyse Scherz,"Talent Agent
(Talent Agent)"
William Morris Endeavor (WME) Entertainment,Solco Schuit,"Agent Motion Pictures
(Talent Agent)"
William Morris Endeavor (WME) Entertainment,Peter Schwartz,Talent Agent
Creative Artists Agency (CAA),Andrew Miller,"TV
(Talent Agent)"
Creative Artists Agency (CAA),Ted Miller,"TV
(Talent Agent)"
Creative Artists Agency (CAA),Ashley Mills,"Television
(Talent Agent)"
Creative Artists Agency (CAA),Cameron Mitchell,Talent Agent
Creative Artists Agency (CAA),Scott Morris,"Music
(Talent Agent)"
Creative Artists Agency (CAA),Mark Mullett,Talent Agent
Creative Artists Agency (CAA),Darin Murphy,"Music
(Talent Agent)"
Creative Artists Agency (CAA),Adam Nettler,Talent Agent
Creative Artists Agency (CAA),Elizabeth Newman,Talent Agent
Creative Artists Agency (CAA),Rebecca Nichols,"Music
(Talent Agent)"
Creative Artists Agency (CAA),Jim Nicolay,"Voice-over
(Talent Agent)"
Creative Artists Agency (CAA),Howard Nuchow,"Co-Head CAA Sports
(Talent Agent)"
Creative Artists Agency (CAA),Tess O'Sullivan,"Sports
(Talent Agent)"
Creative Artists Agency (CAA),Jon Ollier,"Music
(Talent Agent)"
William Morris Endeavor (WME) Entertainment,Erik Seastrand,Talent Agent
William Morris Endeavor (WME) Entertainment,Scott Seidel,"Television
(Talent Agent)"
William Morris Endeavor (WME) Entertainment,Sarah Self,"Partner Motion Picture Literary
(Talent Agent)"
William Morris Endeavor (WME) Entertainment,Amir Shahkhalili,Talent Agent
William Morris Endeavor (WME) Entertainment,Shari Shankewitz,Talent Agent
William Morris Endeavor (WME) Entertainment,Jared Sheer,"Talent Agent
(Talent Agent)"
William Morris Endeavor (WME) Entertainment,Elizabeth Sheinkman,"Literary
(Talent Agent)"
William Morris Endeavor (WME) Entertainment,David J. Sherman,Talent Agent
William Morris Endeavor (WME) Entertainment,Tobias Sherman,"Video Games
(Talent Agent)"
William Morris Endeavor (WME) Entertainment,Rick Shipp,"EVP
(Talent Agent)"
William Morris Endeavor (WME) Entertainment,Kevin Shivers,"partner
(Talent Agent)"
William Morris Endeavor (WME) Entertainment,Sara Newkirk Simon,"Marketing Agent
(Talent Agent)"
William Morris Endeavor (WME) Entertainment,Ben Simone,"TV-Nonscripted
(Talent Agent)"
William Morris Endeavor (WME) Entertainment,Benjamin Simone,"Television Agent
(Talent Agent)"
William Morris Endeavor (WME) Entertainment,Eric Simonoff,"SVP Book Division
(Talent Agent)"
Creative Artists Agency (CAA),Maren Olson,"Film Finance
(Talent Agent)"
Creative Artists Agency (CAA),Matt Olson,"Television
(Talent Agent)"
Creative Artists Agency (CAA),Olivia Owen,Talent Agent
Creative Artists Agency (CAA),Stephanie Paciullo,Talent Agent
Creative Artists Agency (CAA),Praveen Pandian,"TV department
(Talent Agent)"
Creative Artists Agency (CAA),Adam Paulsen,"Agent
(Talent Agent)"
Creative Artists Agency (CAA),Josh Pearl,Talent Agent
Creative Artists Agency (CAA),Shauna Perlman,Talent Agent
Creative Artists Agency (CAA),Ina Petersen,Assistant
Creative Artists Agency (CAA),Bianca Pettinicchi,Executive
Creative Artists Agency (CAA),Brian Pike,"TV
(Talent Agent)"
Creative Artists Agency (CAA),Geoff Pilkington,"Assistant
(Assistant)"
Creative Artists Agency (CAA),Jeremy Plager,Talent Agent
William Morris Endeavor (WME) Entertainment,Mike Simpson,Talent Agent
William Morris Endeavor (WME) Entertainment,Bradley Singer,"Agent Television
(Talent Agent)"
William Morris Endeavor (WME) Entertainment,Doug Singer,Talent Agent
William Morris Endeavor (WME) Entertainment,Christopher Slager,Talent Agent
William Morris Endeavor (WME) Entertainment,Adele Slater,"Music Division
(Talent Agent)"
William Morris Endeavor (WME) Entertainment,Brad Slater,"Partner
(Talent Agent)"
William Morris Endeavor (WME) Entertainment,Katie Krell Slater,"Agent (Commercials)
(Talent Agent)"
William Morris Endeavor (WME) Entertainment,Brent Smith,Talent Agent
William Morris Endeavor (WME) Entertainment,Jill Smoller,"Sports
(Talent Agent)"
William Morris Endeavor (WME) Entertainment,Mike Snider,"Christian Music Division
(Talent Agent)"
William Morris Endeavor (WME) Entertainment,David Snyder,"EVP Adult Contemporary Music
(Talent Agent)"
Creative Artists Agency (CAA),Hylda Queally,"Motion Pictures
(Talent Agent)"
Creative Artists Agency (CAA),Bianca Quesada,"Motion Picture Literary Coordinator
(Talent Agent)"
Creative Artists Agency (CAA),Phil Quist,Assistant
Creative Artists Agency (CAA),Dan Rabinow,"Motion Picture Lit
(Talent Agent)"
Creative Artists Agency (CAA),Adam Radler,Talent Agent
Creative Artists Agency (CAA),Raj Raghavan,"TV
(Talent Agent)"
Creative Artists Agency (CAA),Josh Rahm,Talent Agent
Creative Artists Agency (CAA),Santini Reali,"Television
(Talent Agent)"
Creative Artists Agency (CAA),Chelsea Reed,"Talent Agent-Literary
(Talent Agent)"
Creative Artists Agency (CAA),Luke Rodgers,"film finance and sales department
(Talent Agent)"
Creative Artists Agency (CAA),Leon Rose,"Basketball
(Talent Agent)"
Creative Artists Agency (CAA),Mitch Rose,
Creative Artists Agency (CAA),Michael Rosenfeld,Talent Agent
Creative Artists Agency (CAA),Sonya Rosenfeld,"TV
(Talent Agent)"
William Morris Endeavor (WME) Entertainment,Matt Solo,Talent Agent
William Morris Endeavor (WME) Entertainment,Jason Spitz,Talent Agent
William Morris Endeavor (WME) Entertainment,Ira Stahlberger,Talent Agent
William Morris Endeavor (WME) Entertainment,Nick Stevens,Talent Agent
William Morris Endeavor (WME) Entertainment,David Stone,Talent Agent
William Morris Endeavor (WME) Entertainment,Ashley Sullivan,"Story Department
(Executive)"
William Morris Endeavor (WME) Entertainment,Cathryn Summerhayes,Talent Agent
William Morris Endeavor (WME) Entertainment,Phillip Sun,"Theatrical Agent
(Talent Agent)"
William Morris Endeavor (WME) Entertainment,Cait Taylor,Talent Agent
William Morris Endeavor (WME) Entertainment,Graham Taylor,"Partner WME Global Finance and Distribution Group
(Talent Agent)"
William Morris Endeavor (WME) Entertainment,Becky Thomas,Talent Agent
William Morris Endeavor (WME) Entertainment,David Thomas,Talent Agent
William Morris Endeavor (WME) Entertainment,Jessica Thomas,"Co-Head of Commercial Department
(Talent Agent)"
William Morris Endeavor (WME) Entertainment,Jessie Thompson,"Agent (Lectures)
(Talent Agent)"
William Morris Endeavor (WME) Entertainment,Ben Totis,Talent Agent
Creative Artists Agency (CAA),Rick Roskin,Talent Agent
Creative Artists Agency (CAA),Mina Ross,Talent Agent
Creative Artists Agency (CAA),Audrey Rowe,"Talent Agent
(Talent Agent)"
Creative Artists Agency (CAA),Lis Rudnay,"Sports Endorsements
(Talent Agent)"
Creative Artists Agency (CAA),Lanell Rumion,"television
(Talent Agent)"
Creative Artists Agency (CAA),Rachel Rusch,Talent Agent
Creative Artists Agency (CAA),Elan Ruspoli,Talent Agent
Creative Artists Agency (CAA),Jacqueline Sacerio,"Motion Picture Literary
(Talent Agent)"
Creative Artists Agency (CAA),Carin Sage,Talent Agent
Creative Artists Agency (CAA),Joseph Saroufim,Executive
Creative Artists Agency (CAA),Hans Schiff,Talent Agent
Creative Artists Agency (CAA),Ben Schildkraut,"television
(Talent Agent)"
Creative Artists Agency (CAA),Carey Schwartz,Talent Agent
Creative Artists Agency (CAA),Sherrie Sage Schwartz,"Chief Human Resources Officer
(Executive)"
William Morris Endeavor (WME) Entertainment,Danny Treibatch,Talent Agent
William Morris Endeavor (WME) Entertainment,Simon Trewin,"Partner Head of UK Literary
(Talent Agent)"
William Morris Endeavor (WME) Entertainment,June Horton Van Nort,"Motion Picture Business Affairs
(Executive)"
William Morris Endeavor (WME) Entertainment,Adam Venit,Talent Agent
William Morris Endeavor (WME) Entertainment,Scott Wachs,
William Morris Endeavor (WME) Entertainment,Liza Wachter,Talent Agent
William Morris Endeavor (WME) Entertainment,D.C. Wade,Talent Agent
William Morris Endeavor (WME) Entertainment,Jennifer Walsh,"EVP & Co-Head of Worldwide Literary Dept.
(Talent Agent)"
William Morris Endeavor (WME) Entertainment,Andrew Wang,"Scripted TV
(Talent Agent)"
William Morris Endeavor (WME) Entertainment,Russell Warby,"Music Division
(Talent Agent)"
William Morris Endeavor (WME) Entertainment,Will Ward,"Partner
(Talent Agent)"
William Morris Endeavor (WME) Entertainment,Evan Warner,Talent Agent
William Morris Endeavor (WME) Entertainment,Susan Weaving,Talent Agent
William Morris Endeavor (WME) Entertainment,Meredith Wechter,Talent Agent
William Morris Endeavor (WME) Entertainment,Richard Weitz,"Partner & Head of TV Packaging
(Talent Agent)"
Creative Artists Agency (CAA),Ana Carolina Sena,
Creative Artists Agency (CAA),Jimmy Sexton,"Sports
(Talent Agent)"
Creative Artists Agency (CAA),Kylen Sharpe,"Music
(Talent Agent)"
Creative Artists Agency (CAA),Danielle Shebby,Talent Agent
Creative Artists Agency (CAA),Brendan Shields-Shimizu,"CAA Marketing
(Executive)"
Creative Artists Agency (CAA),Lisa Shotland,Talent Agent
Creative Artists Agency (CAA),Ally Shuster,
Creative Artists Agency (CAA),Brian Siberell,Talent Agent
Creative Artists Agency (CAA),Shakeib Siddiq,Talent Agent
Creative Artists Agency (CAA),Vanessa Silverton-Peel,Talent Agent
Creative Artists Agency (CAA),Andrew Simon,"Booking
(Talent Agent)"
Creative Artists Agency (CAA),Chris Simonian,Talent Agent
Creative Artists Agency (CAA),Steve Smooke,"TV
(Talent Agent)"
Creative Artists Agency (CAA),Matthew Snyder,Talent Agent
William Morris Endeavor (WME) Entertainment,Tom Wellington,"Partner Literary
(Talent Agent)"
William Morris Endeavor (WME) Entertainment,Cori Wellins,"SVP Lit Dept.
(Talent Agent)"
William Morris Endeavor (WME) Entertainment,Lee White,"Agent
(Talent Agent)"
William Morris Endeavor (WME) Entertainment,Patrick Whitesell,"Co-CEO
(Executive)"
William Morris Endeavor (WME) Entertainment,Lauren Heller Whitney,Talent Agent
William Morris Endeavor (WME) Entertainment,Jay Williams,"Music
(Talent Agent)"
William Morris Endeavor (WME) Entertainment,David Wirtschafter,"Partner
(Talent Agent)"
William Morris Endeavor (WME) Entertainment,Billy Terry Wood,Talent Agent
William Morris Endeavor (WME) Entertainment,Mira Yong,Talent Agent
William Morris Endeavor (WME) Entertainment,Hilary Zaitz,"Literary Agent
(Talent Agent)"
William Morris Endeavor (WME) Entertainment,Derek Zasky,Talent Agent
William Morris Endeavor (WME) Entertainment,Warren Zavala,"Partner
(Talent Agent)"
William Morris Endeavor (WME) Entertainment,Isabella Zoltowski,"Format
(Talent Agent)"
William Morris Endeavor (WME) Entertainment,Philip d'Amecourt,"Partner
(Talent Agent)"
Creative Artists Agency (CAA),Marc Socher,"CAA Sports Consulting Germany
(Talent Agent)"
Creative Artists Agency (CAA),Jordan Solomon,
Creative Artists Agency (CAA),Fred Specktor,Talent Agent
Creative Artists Agency (CAA),Ali Spiesman,"Music
(Talent Agent)"
Creative Artists Agency (CAA),Sheldon Sroloff,Talent Agent
Creative Artists Agency (CAA),Pete Stein,"Motion Picture Literary
(Talent Agent)"
Creative Artists Agency (CAA),David Stelzer,"games
(Talent Agent)"
Creative Artists Agency (CAA),Zack Stone,"Music Sponsorship
(Talent Agent)"
Creative Artists Agency (CAA),Erin Sullivan,Executive
Creative Artists Agency (CAA),Mick Sullivan,Talent Agent
Creative Artists Agency (CAA),Olivier Sultan,"Talent Agent-Literary
(Talent Agent)"
Creative Artists Agency (CAA),Angie Sun,"Marketing
(Executive)"
Creative Artists Agency (CAA),Roeg Sutherland,"Head Film Finance and Sales
(Talent Agent)"
Creative Artists Agency (CAA),Jonathan Swaden,"Alternative TV
(Talent Agent)"
Creative Artists Agency (CAA),Dilan Swain,Talent
Creative Artists Agency (CAA),Beth Swofford,"Motion Picture Literary
(Talent Agent)"
Creative Artists Agency (CAA),David Tagihoff,Talent Agent
Creative Artists Agency (CAA),Brandon Takata,"Comedy Touring
(Talent Agent)"
Creative Artists Agency (CAA),Cathy Tarr,Talent Agent
Creative Artists Agency (CAA),Donovan Tatum,Talent Agent
Creative Artists Agency (CAA),Lowell Taub,"Agent
(Talent Agent)"
Creative Artists Agency (CAA),Jon Teiber,"Motion Picture Talent
(Talent Agent)"
Creative Artists Agency (CAA),Henry Thomas,"basketball division
(Talent Agent)"
Creative Artists Agency (CAA),Jack Tiernan,"Talent Agent
(Talent Agent)"
Creative Artists Agency (CAA),Chris Till,"Literary
(Talent Agent)"
Creative Artists Agency (CAA),Jim Toth,Talent Agent
Creative Artists Agency (CAA),Alexandra Trustman,Talent Agent
Creative Artists Agency (CAA),Marlene Tsuchii,"Personal Appearances
(Talent Agent)"
Creative Artists Agency (CAA),Tristen Tuckfield,"Film Finance & Sales Group
(Talent Agent)"
Creative Artists Agency (CAA),Jesse Uram,
Creative Artists Agency (CAA),Bruce Vinokour,"TV
(Talent Agent)"
Creative Artists Agency (CAA),Ryan Vogt,"Licensing
(Talent Agent)"
Creative Artists Agency (CAA),Jin Wang,"Publicity
(Executive)"
Creative Artists Agency (CAA),Tiffany Ward,"TV
(Talent Agent)"
Creative Artists Agency (CAA),Avi Wasserman,"Talent Agent
(Talent Agent)"
Creative Artists Agency (CAA),Eric Wattenberg,Talent Agent
Creative Artists Agency (CAA),Michelle Weiner,"Books
(Talent Agent)"
Creative Artists Agency (CAA),Andrea Weintraub,"Television Department
(Talent Agent)"
Creative Artists Agency (CAA),Jack Whigham,"Co-Head of Motion Picture Talent
(Talent Agent)"
Creative Artists Agency (CAA),Kathy White,"TV
(Talent Agent)"
Creative Artists Agency (CAA),Judee Ann Williams,"CAA Foundation
(Executive)"
Creative Artists Agency (CAA),Perry Wolfman,Talent Agent
Creative Artists Agency (CAA),Emily Wright,"Music
(Talent Agent)"
Creative Artists Agency (CAA),Allison Wruble,Executive
Creative Artists Agency (CAA),Julia Xu,"Agent
(Talent Agent)"
Creative Artists Agency (CAA),Luna Xu,"Motion Pictures
(Talent Agent)"
Creative Artists Agency (CAA),Michael Yanover,"Corporate Development
(Executive)"
Creative Artists Agency (CAA),Amie Yavor,Talent Agent
Creative Artists Agency (CAA),Leah Yerushalaim,"TV Literary
(Talent Agent)"
Creative Artists Agency (CAA),Tom Young,"TV-Literary Agent
(Talent Agent)"
Creative Artists Agency (CAA),Ashley Zhang,"Theatrical Agent
(Talent Agent)"
Creative Artists Agency (CAA),Ida Ziniti,"Motion Picture and TV Lit
(Talent Agent)"
Creative Artists Agency (CAA),Bill Zotti,"Motion Picture Literary
(Talent Agent)"
Creative Artists Agency (CAA),Katie Zwick,Talent Agent
